<?xml version="1.0" encoding="utf-8"  standalone="no"?>
<!DOCTYPE svg PUBLIC "-//W3C//DTD SVG 1.1//EN"
 "http://www.w3.org/Graphics/SVG/1.1/DTD/svg11.dtd">
<svg 
 width="1000" height="500"
 viewBox="0 0 1000 500"
 xmlns="http://www.w3.org/2000/svg"
 xmlns:xlink="http://www.w3.org/1999/xlink"
>

<title>Gnuplot</title>
<desc>Produced by GNUPLOT 5.0 patchlevel 5 </desc>

<g id="gnuplot_canvas">

<rect x="0" y="0" width="1000" height="500" fill="none"/>
<defs>

	<circle id='gpDot' r='0.5' stroke-width='0.5'/>
	<path id='gpPt0' stroke-width='0.167' stroke='currentColor' d='M-1,0 h2 M0,-1 v2'/>
	<path id='gpPt1' stroke-width='0.167' stroke='currentColor' d='M-1,-1 L1,1 M1,-1 L-1,1'/>
	<path id='gpPt2' stroke-width='0.167' stroke='currentColor' d='M-1,0 L1,0 M0,-1 L0,1 M-1,-1 L1,1 M-1,1 L1,-1'/>
	<rect id='gpPt3' stroke-width='0.167' stroke='currentColor' x='-1' y='-1' width='2' height='2'/>
	<rect id='gpPt4' stroke-width='0.167' stroke='currentColor' fill='currentColor' x='-1' y='-1' width='2' height='2'/>
	<circle id='gpPt5' stroke-width='0.167' stroke='currentColor' cx='0' cy='0' r='1'/>
	<use xlink:href='#gpPt5' id='gpPt6' fill='currentColor' stroke='none'/>
	<path id='gpPt7' stroke-width='0.167' stroke='currentColor' d='M0,-1.33 L-1.33,0.67 L1.33,0.67 z'/>
	<use xlink:href='#gpPt7' id='gpPt8' fill='currentColor' stroke='none'/>
	<use xlink:href='#gpPt7' id='gpPt9' stroke='currentColor' transform='rotate(180)'/>
	<use xlink:href='#gpPt9' id='gpPt10' fill='currentColor' stroke='none'/>
	<use xlink:href='#gpPt3' id='gpPt11' stroke='currentColor' transform='rotate(45)'/>
	<use xlink:href='#gpPt11' id='gpPt12' fill='currentColor' stroke='none'/>
	<path id='gpPt13' stroke-width='0.167' stroke='currentColor' d='M0,1.330 L1.265,0.411 L0.782,-1.067 L-0.782,-1.076 L-1.265,0.411 z'/>
	<use xlink:href='#gpPt13' id='gpPt14' fill='currentColor' stroke='none'/>
	<filter id='textbox' filterUnits='objectBoundingBox' x='0' y='0' height='1' width='1'>
	  <feFlood flood-color='white' flood-opacity='1' result='bgnd'/>
	  <feComposite in='SourceGraphic' in2='bgnd' operator='atop'/>
	</filter>
	<filter id='greybox' filterUnits='objectBoundingBox' x='0' y='0' height='1' width='1'>
	  <feFlood flood-color='lightgrey' flood-opacity='1' result='grey'/>
	  <feComposite in='SourceGraphic' in2='grey' operator='atop'/>
	</filter>
</defs>
<g fill="none" color="white" stroke="currentColor" stroke-width="1.00" stroke-linecap="butt" stroke-linejoin="miter">
</g>
<g fill="none" color="black" stroke="currentColor" stroke-width="1.00" stroke-linecap="butt" stroke-linejoin="miter">
	<path stroke='black'  d='M108.0,399.2 L120.0,399.2  '/>	<g transform="translate(96.8,404.4)" stroke="none" fill="black" font-family="Helvetica Neue Light" font-size="16.00"  text-anchor="end">
		<text><tspan font-family="Helvetica Neue Light" > 0</tspan></text>
	</g>
</g>
<g fill="none" color="black" stroke="currentColor" stroke-width="1.00" stroke-linecap="butt" stroke-linejoin="miter">
	<path stroke='black'  d='M108.0,344.7 L120.0,344.7  '/>	<g transform="translate(96.8,349.9)" stroke="none" fill="black" font-family="Helvetica Neue Light" font-size="16.00"  text-anchor="end">
		<text><tspan font-family="Helvetica Neue Light" > 200</tspan></text>
	</g>
</g>
<g fill="none" color="black" stroke="currentColor" stroke-width="1.00" stroke-linecap="butt" stroke-linejoin="miter">
	<path stroke='black'  d='M108.0,290.2 L120.0,290.2  '/>	<g transform="translate(96.8,295.4)" stroke="none" fill="black" font-family="Helvetica Neue Light" font-size="16.00"  text-anchor="end">
		<text><tspan font-family="Helvetica Neue Light" > 400</tspan></text>
	</g>
</g>
<g fill="none" color="black" stroke="currentColor" stroke-width="1.00" stroke-linecap="butt" stroke-linejoin="miter">
	<path stroke='black'  d='M108.0,235.6 L120.0,235.6  '/>	<g transform="translate(96.8,240.8)" stroke="none" fill="black" font-family="Helvetica Neue Light" font-size="16.00"  text-anchor="end">
		<text><tspan font-family="Helvetica Neue Light" > 600</tspan></text>
	</g>
</g>
<g fill="none" color="black" stroke="currentColor" stroke-width="1.00" stroke-linecap="butt" stroke-linejoin="miter">
	<path stroke='black'  d='M108.0,181.1 L120.0,181.1  '/>	<g transform="translate(96.8,186.3)" stroke="none" fill="black" font-family="Helvetica Neue Light" font-size="16.00"  text-anchor="end">
		<text><tspan font-family="Helvetica Neue Light" > 800</tspan></text>
	</g>
</g>
<g fill="none" color="black" stroke="currentColor" stroke-width="1.00" stroke-linecap="butt" stroke-linejoin="miter">
	<path stroke='black'  d='M108.0,126.6 L120.0,126.6  '/>	<g transform="translate(96.8,131.8)" stroke="none" fill="black" font-family="Helvetica Neue Light" font-size="16.00"  text-anchor="end">
		<text><tspan font-family="Helvetica Neue Light" > 1000</tspan></text>
	</g>
</g>
<g fill="none" color="black" stroke="currentColor" stroke-width="1.00" stroke-linecap="butt" stroke-linejoin="miter">
	<path stroke='black'  d='M108.0,72.1 L120.0,72.1  '/>	<g transform="translate(96.8,77.3)" stroke="none" fill="black" font-family="Helvetica Neue Light" font-size="16.00"  text-anchor="end">
		<text><tspan font-family="Helvetica Neue Light" > 1200</tspan></text>
	</g>
</g>
<g fill="none" color="black" stroke="currentColor" stroke-width="1.00" stroke-linecap="butt" stroke-linejoin="miter">
</g>
<g fill="none" color="black" stroke="black" stroke-width="0.50" stroke-linecap="butt" stroke-linejoin="miter">
</g>
<g fill="none" color="gray" stroke="currentColor" stroke-width="0.50" stroke-linecap="butt" stroke-linejoin="miter">
	<path stroke='gray' stroke-dasharray='2,4' class="gridline"  d='M108.0,399.2 L108.0,72.1  '/></g>
<g fill="none" color="gray" stroke="gray" stroke-width="1.00" stroke-linecap="butt" stroke-linejoin="miter">
</g>
<g fill="none" color="black" stroke="currentColor" stroke-width="1.00" stroke-linecap="butt" stroke-linejoin="miter">
	<path stroke='black'  d='M108.0,399.2 L108.0,387.2 M108.0,72.1 L108.0,84.1  '/>	<g transform="translate(108.0,428.4)" stroke="none" fill="black" font-family="Helvetica Neue Light" font-size="16.00"  text-anchor="middle">
		<text><tspan font-family="Helvetica Neue Light" > 0</tspan></text>
	</g>
</g>
<g fill="none" color="black" stroke="currentColor" stroke-width="1.00" stroke-linecap="butt" stroke-linejoin="miter">
</g>
<g fill="none" color="black" stroke="black" stroke-width="0.50" stroke-linecap="butt" stroke-linejoin="miter">
</g>
<g fill="none" color="gray" stroke="currentColor" stroke-width="0.50" stroke-linecap="butt" stroke-linejoin="miter">
	<path stroke='gray' stroke-dasharray='2,4' class="gridline"  d='M230.6,399.2 L230.6,72.1  '/></g>
<g fill="none" color="gray" stroke="gray" stroke-width="1.00" stroke-linecap="butt" stroke-linejoin="miter">
</g>
<g fill="none" color="black" stroke="currentColor" stroke-width="1.00" stroke-linecap="butt" stroke-linejoin="miter">
	<path stroke='black'  d='M230.6,399.2 L230.6,387.2 M230.6,72.1 L230.6,84.1  '/>	<g transform="translate(230.6,428.4)" stroke="none" fill="black" font-family="Helvetica Neue Light" font-size="16.00"  text-anchor="middle">
		<text><tspan font-family="Helvetica Neue Light" > 50</tspan></text>
	</g>
</g>
<g fill="none" color="black" stroke="currentColor" stroke-width="1.00" stroke-linecap="butt" stroke-linejoin="miter">
</g>
<g fill="none" color="black" stroke="black" stroke-width="0.50" stroke-linecap="butt" stroke-linejoin="miter">
</g>
<g fill="none" color="gray" stroke="currentColor" stroke-width="0.50" stroke-linecap="butt" stroke-linejoin="miter">
	<path stroke='gray' stroke-dasharray='2,4' class="gridline"  d='M353.2,399.2 L353.2,72.1  '/></g>
<g fill="none" color="gray" stroke="gray" stroke-width="1.00" stroke-linecap="butt" stroke-linejoin="miter">
</g>
<g fill="none" color="black" stroke="currentColor" stroke-width="1.00" stroke-linecap="butt" stroke-linejoin="miter">
	<path stroke='black'  d='M353.2,399.2 L353.2,387.2 M353.2,72.1 L353.2,84.1  '/>	<g transform="translate(353.2,428.4)" stroke="none" fill="black" font-family="Helvetica Neue Light" font-size="16.00"  text-anchor="middle">
		<text><tspan font-family="Helvetica Neue Light" > 100</tspan></text>
	</g>
</g>
<g fill="none" color="black" stroke="currentColor" stroke-width="1.00" stroke-linecap="butt" stroke-linejoin="miter">
</g>
<g fill="none" color="black" stroke="black" stroke-width="0.50" stroke-linecap="butt" stroke-linejoin="miter">
</g>
<g fill="none" color="gray" stroke="currentColor" stroke-width="0.50" stroke-linecap="butt" stroke-linejoin="miter">
	<path stroke='gray' stroke-dasharray='2,4' class="gridline"  d='M475.8,399.2 L475.8,72.1  '/></g>
<g fill="none" color="gray" stroke="gray" stroke-width="1.00" stroke-linecap="butt" stroke-linejoin="miter">
</g>
<g fill="none" color="black" stroke="currentColor" stroke-width="1.00" stroke-linecap="butt" stroke-linejoin="miter">
	<path stroke='black'  d='M475.8,399.2 L475.8,387.2 M475.8,72.1 L475.8,84.1  '/>	<g transform="translate(475.8,428.4)" stroke="none" fill="black" font-family="Helvetica Neue Light" font-size="16.00"  text-anchor="middle">
		<text><tspan font-family="Helvetica Neue Light" > 150</tspan></text>
	</g>
</g>
<g fill="none" color="black" stroke="currentColor" stroke-width="1.00" stroke-linecap="butt" stroke-linejoin="miter">
</g>
<g fill="none" color="black" stroke="black" stroke-width="0.50" stroke-linecap="butt" stroke-linejoin="miter">
</g>
<g fill="none" color="gray" stroke="currentColor" stroke-width="0.50" stroke-linecap="butt" stroke-linejoin="miter">
	<path stroke='gray' stroke-dasharray='2,4' class="gridline"  d='M598.5,399.2 L598.5,72.1  '/></g>
<g fill="none" color="gray" stroke="gray" stroke-width="1.00" stroke-linecap="butt" stroke-linejoin="miter">
</g>
<g fill="none" color="black" stroke="currentColor" stroke-width="1.00" stroke-linecap="butt" stroke-linejoin="miter">
	<path stroke='black'  d='M598.5,399.2 L598.5,387.2 M598.5,72.1 L598.5,84.1  '/>	<g transform="translate(598.5,428.4)" stroke="none" fill="black" font-family="Helvetica Neue Light" font-size="16.00"  text-anchor="middle">
		<text><tspan font-family="Helvetica Neue Light" > 200</tspan></text>
	</g>
</g>
<g fill="none" color="black" stroke="currentColor" stroke-width="1.00" stroke-linecap="butt" stroke-linejoin="miter">
</g>
<g fill="none" color="black" stroke="black" stroke-width="0.50" stroke-linecap="butt" stroke-linejoin="miter">
</g>
<g fill="none" color="gray" stroke="currentColor" stroke-width="0.50" stroke-linecap="butt" stroke-linejoin="miter">
	<path stroke='gray' stroke-dasharray='2,4' class="gridline"  d='M721.1,399.2 L721.1,72.1  '/></g>
<g fill="none" color="gray" stroke="gray" stroke-width="1.00" stroke-linecap="butt" stroke-linejoin="miter">
</g>
<g fill="none" color="black" stroke="currentColor" stroke-width="1.00" stroke-linecap="butt" stroke-linejoin="miter">
	<path stroke='black'  d='M721.1,399.2 L721.1,387.2 M721.1,72.1 L721.1,84.1  '/>	<g transform="translate(721.1,428.4)" stroke="none" fill="black" font-family="Helvetica Neue Light" font-size="16.00"  text-anchor="middle">
		<text><tspan font-family="Helvetica Neue Light" > 250</tspan></text>
	</g>
</g>
<g fill="none" color="black" stroke="currentColor" stroke-width="1.00" stroke-linecap="butt" stroke-linejoin="miter">
</g>
<g fill="none" color="black" stroke="black" stroke-width="0.50" stroke-linecap="butt" stroke-linejoin="miter">
</g>
<g fill="none" color="gray" stroke="currentColor" stroke-width="0.50" stroke-linecap="butt" stroke-linejoin="miter">
	<path stroke='gray' stroke-dasharray='2,4' class="gridline"  d='M843.7,399.2 L843.7,72.1  '/></g>
<g fill="none" color="gray" stroke="gray" stroke-width="1.00" stroke-linecap="butt" stroke-linejoin="miter">
</g>
<g fill="none" color="black" stroke="currentColor" stroke-width="1.00" stroke-linecap="butt" stroke-linejoin="miter">
	<path stroke='black'  d='M843.7,399.2 L843.7,387.2 M843.7,72.1 L843.7,84.1  '/>	<g transform="translate(843.7,428.4)" stroke="none" fill="black" font-family="Helvetica Neue Light" font-size="16.00"  text-anchor="middle">
		<text><tspan font-family="Helvetica Neue Light" > 300</tspan></text>
	</g>
</g>
<g fill="none" color="black" stroke="currentColor" stroke-width="1.00" stroke-linecap="butt" stroke-linejoin="miter">
</g>
<g fill="none" color="black" stroke="black" stroke-width="0.50" stroke-linecap="butt" stroke-linejoin="miter">
</g>
<g fill="none" color="gray" stroke="currentColor" stroke-width="0.50" stroke-linecap="butt" stroke-linejoin="miter">
	<path stroke='gray' stroke-dasharray='2,4' class="gridline"  d='M966.3,399.2 L966.3,72.1  '/></g>
<g fill="none" color="gray" stroke="gray" stroke-width="1.00" stroke-linecap="butt" stroke-linejoin="miter">
</g>
<g fill="none" color="black" stroke="currentColor" stroke-width="1.00" stroke-linecap="butt" stroke-linejoin="miter">
	<path stroke='black'  d='M966.3,399.2 L966.3,387.2 M966.3,72.1 L966.3,84.1  '/>	<g transform="translate(966.3,428.4)" stroke="none" fill="black" font-family="Helvetica Neue Light" font-size="16.00"  text-anchor="middle">
		<text><tspan font-family="Helvetica Neue Light" > 350</tspan></text>
	</g>
</g>
<g fill="none" color="black" stroke="currentColor" stroke-width="1.00" stroke-linecap="butt" stroke-linejoin="miter">
</g>
<g fill="none" color="black" stroke="currentColor" stroke-width="1.00" stroke-linecap="butt" stroke-linejoin="miter">
	<path stroke='black'  d='M108.0,72.1 L108.0,399.2 L966.3,399.2 L966.3,72.1 L108.0,72.1 Z  '/></g>
<g fill="none" color="black" stroke="currentColor" stroke-width="1.00" stroke-linecap="butt" stroke-linejoin="miter">
	<g transform="translate(22.8,235.7) rotate(270)" stroke="none" fill="black" font-family="Helvetica Neue Light" font-size="16.00"  text-anchor="middle">
		<text><tspan font-family="Helvetica Neue Light" >Distance (m)</tspan></text>
	</g>
</g>
<g fill="none" color="black" stroke="currentColor" stroke-width="1.00" stroke-linecap="butt" stroke-linejoin="miter">
	<g transform="translate(537.1,464.4)" stroke="none" fill="black" font-family="Helvetica Neue Light" font-size="16.00"  text-anchor="middle">
		<text><tspan font-family="Helvetica Neue Light" >Time (s)</tspan></text>
	</g>
</g>
<g fill="none" color="black" stroke="currentColor" stroke-width="1.00" stroke-linecap="butt" stroke-linejoin="miter">
	<g transform="translate(537.1,41.3)" stroke="none" fill="black" font-family="Helvetica Neue Light" font-size="16.00"  text-anchor="middle">
		<text><tspan font-family="Helvetica Neue Light" >Input and Disturbance Forces applied over Open Loop and Closed Loop Control</tspan></text>
	</g>
</g>
	<g id="gnuplot_plot_1a" ><title>Feedback</title>
<g fill="none" color="black" stroke="currentColor" stroke-width="1.00" stroke-linecap="butt" stroke-linejoin="miter">
	<g transform="translate(457.9,481.2)" stroke="none" fill="black" font-family="Helvetica Neue Light" font-size="16.00"  text-anchor="end">
		<text><tspan font-family="Helvetica Neue Light" >Feedback</tspan></text>
	</g>
</g>
<g fill="none" color="black" stroke="currentColor" stroke-width="1.00" stroke-linecap="butt" stroke-linejoin="miter">
	<path stroke='rgb(100,  91,  75)'  d='M469.1,476.0 L525.9,476.0 M108.0,399.2 L108.2,399.0 L108.5,398.8 L108.7,398.6 L109.0,398.3 L109.2,398.1
		L109.5,397.9 L109.7,397.7 L110.0,397.5 L110.2,397.3 L110.5,397.1 L110.7,396.9 L110.9,396.7 L111.2,396.5
		L111.4,396.3 L111.7,396.1 L111.9,395.9 L112.2,395.7 L112.4,395.6 L112.7,395.4 L112.9,395.2 L113.1,395.0
		L113.4,394.8 L113.6,394.7 L113.9,394.5 L114.1,394.3 L114.4,394.1 L114.6,394.0 L114.9,393.8 L115.1,393.6
		L115.4,393.4 L115.6,393.3 L115.8,393.1 L116.1,393.0 L116.3,392.8 L116.6,392.6 L116.8,392.5 L117.1,392.3
		L117.3,392.2 L117.6,392.0 L117.8,391.9 L118.1,391.7 L118.3,391.6 L118.5,391.4 L118.8,391.3 L119.0,391.1
		L119.3,391.0 L119.5,390.8 L119.8,390.7 L120.0,390.5 L120.3,390.4 L120.5,390.3 L120.8,390.1 L121.0,390.0
		L121.2,389.8 L121.5,389.7 L121.7,389.6 L122.0,389.4 L122.2,389.3 L122.5,389.2 L122.7,389.0 L123.0,388.9
		L123.2,388.8 L123.4,388.6 L123.7,388.5 L123.9,388.4 L124.2,388.2 L124.4,388.1 L124.7,388.0 L124.9,387.9
		L125.2,387.7 L125.4,387.6 L125.7,387.5 L125.9,387.4 L126.1,387.2 L126.4,387.1 L126.6,387.0 L126.9,386.9
		L127.1,386.7 L127.4,386.6 L127.6,386.5 L127.9,386.4 L128.1,386.2 L128.4,386.1 L128.6,386.0 L128.8,385.9
		L129.1,385.8 L129.3,385.6 L129.6,385.5 L129.8,385.4 L130.1,385.3 L130.3,385.2 L130.6,385.1 L130.8,384.9
		L131.1,384.8 L131.3,384.7 L131.5,384.6 L131.8,384.5 L132.0,384.4 L132.3,384.2 L132.5,384.1 L132.8,384.0
		L133.0,383.9 L133.3,383.8 L133.5,383.7 L133.7,383.6 L134.0,383.4 L134.2,383.3 L134.5,383.2 L134.7,383.1
		L135.0,383.0 L135.2,382.9 L135.5,382.8 L135.7,382.6 L136.0,382.5 L136.2,382.4 L136.4,382.3 L136.7,382.2
		L136.9,382.1 L137.2,382.0 L137.4,381.8 L137.7,381.7 L137.9,381.6 L138.2,381.5 L138.4,381.4 L138.7,381.3
		L138.9,381.2 L139.1,381.1 L139.4,380.9 L139.6,380.8 L139.9,380.7 L140.1,380.6 L140.4,380.5 L140.6,380.4
		L140.9,380.3 L141.1,380.2 L141.4,380.0 L141.6,379.9 L141.8,379.8 L142.1,379.7 L142.3,379.6 L142.6,379.5
		L142.8,379.4 L143.1,379.3 L143.3,379.1 L143.6,379.0 L143.8,378.9 L144.0,378.8 L144.3,378.7 L144.5,378.6
		L144.8,378.5 L145.0,378.4 L145.3,378.2 L145.5,378.1 L145.8,378.0 L146.0,377.9 L146.3,377.8 L146.5,377.7
		L146.7,377.6 L147.0,377.5 L147.2,377.4 L147.5,377.3 L147.7,377.2 L148.0,377.0 L148.2,376.9 L148.5,376.8
		L148.7,376.7 L149.0,376.6 L149.2,376.5 L149.4,376.4 L149.7,376.3 L149.9,376.2 L150.2,376.1 L150.4,376.0
		L150.7,375.9 L150.9,375.8 L151.2,375.7 L151.4,375.6 L151.7,375.5 L151.9,375.4 L152.1,375.3 L152.4,375.2
		L152.6,375.1 L152.9,375.0 L153.1,374.9 L153.4,374.8 L153.6,374.7 L153.9,374.6 L154.1,374.5 L154.3,374.4
		L154.6,374.3 L154.8,374.2 L155.1,374.1 L155.3,374.0 L155.6,373.9 L155.8,373.8 L156.1,373.7 L156.3,373.6
		L156.6,373.5 L156.8,373.4 L157.0,373.3 L157.3,373.2 L157.5,373.1 L157.8,373.0 L158.0,372.9 L158.3,372.8
		L158.5,372.7 L158.8,372.6 L159.0,372.5 L159.3,372.4 L159.5,372.3 L159.7,372.2 L160.0,372.1 L160.2,372.0
		L160.5,371.9 L160.7,371.8 L161.0,371.7 L161.2,371.6 L161.5,371.5 L161.7,371.4 L162.0,371.3 L162.2,371.2
		L162.4,371.1 L162.7,371.0 L162.9,370.9 L163.2,370.8 L163.4,370.7 L163.7,370.6 L163.9,370.5 L164.2,370.4
		L164.4,370.3 L164.6,370.2 L164.9,370.1 L165.1,370.0 L165.4,369.9 L165.6,369.8 L165.9,369.7 L166.1,369.6
		L166.4,369.5 L166.6,369.4 L166.9,369.3 L167.1,369.2 L167.3,369.1 L167.6,369.0 L167.8,368.9 L168.1,368.8
		L168.3,368.7 L168.6,368.6 L168.8,368.5 L169.1,368.4 L169.3,368.3 L169.6,368.2 L169.8,368.1 L170.0,368.0
		L170.3,367.9 L170.5,367.8 L170.8,367.7 L171.0,367.6 L171.3,367.5 L171.5,367.4 L171.8,367.4 L172.0,367.3
		L172.2,367.2 L172.5,367.1 L172.7,367.0 L173.0,366.9 L173.2,366.8 L173.5,366.7 L173.7,366.6 L174.0,366.5
		L174.2,366.4 L174.5,366.3 L174.7,366.2 L174.9,366.1 L175.2,366.0 L175.4,365.9 L175.7,365.9 L175.9,365.8
		L176.2,365.7 L176.4,365.6 L176.7,365.5 L176.9,365.4 L177.2,365.3 L177.4,365.2 L177.6,365.1 L177.9,365.0
		L178.1,364.9 L178.4,364.9 L178.6,364.8 L178.9,364.7 L179.1,364.6 L179.4,364.5 L179.6,364.4 L179.9,364.3
		L180.1,364.2 L180.3,364.1 L180.6,364.1 L180.8,364.0 L181.1,363.9 L181.3,363.8 L181.6,363.7 L181.8,363.6
		L182.1,363.5 L182.3,363.4 L182.5,363.3 L182.8,363.3 L183.0,363.2 L183.3,363.1 L183.5,363.0 L183.8,362.9
		L184.0,362.8 L184.3,362.7 L184.5,362.6 L184.8,362.5 L185.0,362.4 L185.2,362.3 L185.5,362.2 L185.7,362.1
		L186.0,362.0 L186.2,361.9 L186.5,361.8 L186.7,361.7 L187.0,361.7 L187.2,361.6 L187.5,361.5 L187.7,361.4
		L187.9,361.3 L188.2,361.2 L188.4,361.1 L188.7,361.0 L188.9,360.9 L189.2,360.8 L189.4,360.7 L189.7,360.6
		L189.9,360.5 L190.2,360.4 L190.4,360.3 L190.6,360.2 L190.9,360.1 L191.1,360.0 L191.4,359.9 L191.6,359.8
		L191.9,359.7 L192.1,359.6 L192.4,359.5 L192.6,359.4 L192.8,359.3 L193.1,359.2 L193.3,359.1 L193.6,359.0
		L193.8,358.9 L194.1,358.8 L194.3,358.7 L194.6,358.6 L194.8,358.5 L195.1,358.3 L195.3,358.2 L195.5,358.1
		L195.8,358.0 L196.0,357.9 L196.3,357.8 L196.5,357.7 L196.8,357.6 L197.0,357.5 L197.3,357.4 L197.5,357.3
		L197.8,357.2 L198.0,357.1 L198.2,357.0 L198.5,356.9 L198.7,356.8 L199.0,356.6 L199.2,356.5 L199.5,356.4
		L199.7,356.3 L200.0,356.2 L200.2,356.1 L200.5,356.0 L200.7,355.9 L200.9,355.8 L201.2,355.7 L201.4,355.6
		L201.7,355.4 L201.9,355.3 L202.2,355.2 L202.4,355.1 L202.7,355.0 L202.9,354.9 L203.1,354.8 L203.4,354.7
		L203.6,354.5 L203.9,354.4 L204.1,354.3 L204.4,354.2 L204.6,354.1 L204.9,354.0 L205.1,353.9 L205.4,353.8
		L205.6,353.6 L205.8,353.5 L206.1,353.4 L206.3,353.3 L206.6,353.2 L206.8,353.1 L207.1,353.0 L207.3,352.9
		L207.6,352.7 L207.8,352.6 L208.1,352.5 L208.3,352.4 L208.5,352.3 L208.8,352.2 L209.0,352.1 L209.3,352.0
		L209.5,351.9 L209.8,351.7 L210.0,351.6 L210.3,351.5 L210.5,351.4 L210.8,351.3 L211.0,351.2 L211.2,351.1
		L211.5,351.0 L211.7,350.9 L212.0,350.8 L212.2,350.7 L212.5,350.5 L212.7,350.4 L213.0,350.3 L213.2,350.2
		L213.4,350.1 L213.7,350.0 L213.9,349.9 L214.2,349.8 L214.4,349.7 L214.7,349.6 L214.9,349.5 L215.2,349.4
		L215.4,349.3 L215.7,349.2 L215.9,349.0 L216.1,348.9 L216.4,348.8 L216.6,348.7 L216.9,348.6 L217.1,348.5
		L217.4,348.4 L217.6,348.3 L217.9,348.2 L218.1,348.1 L218.4,348.0 L218.6,347.9 L218.8,347.8 L219.1,347.7
		L219.3,347.6 L219.6,347.5 L219.8,347.4 L220.1,347.3 L220.3,347.2 L220.6,347.1 L220.8,347.0 L221.1,346.9
		L221.3,346.8 L221.5,346.7 L221.8,346.6 L222.0,346.5 L222.3,346.4 L222.5,346.3 L222.8,346.2 L223.0,346.1
		L223.3,346.0 L223.5,345.9 L223.7,345.8 L224.0,345.7 L224.2,345.6 L224.5,345.5 L224.7,345.4 L225.0,345.3
		L225.2,345.2 L225.5,345.1 L225.7,345.0 L226.0,344.9 L226.2,344.8 L226.4,344.7 L226.7,344.6 L226.9,344.6
		L227.2,344.5 L227.4,344.4 L227.7,344.3 L227.9,344.2 L228.2,344.1 L228.4,344.0 L228.7,343.9 L228.9,343.8
		L229.1,343.7 L229.4,343.6 L229.6,343.6 L229.9,343.5 L230.1,343.4 L230.4,343.3 L230.6,343.2 L230.9,343.1
		L231.1,343.0 L231.3,342.9 L231.6,342.8 L231.8,342.7 L232.1,342.7 L232.3,342.6 L232.6,342.5 L232.8,342.4
		L233.1,342.3 L233.3,342.2 L233.6,342.1 L233.8,342.0 L234.0,342.0 L234.3,341.9 L234.5,341.8 L234.8,341.7
		L235.0,341.6 L235.3,341.5 L235.5,341.4 L235.8,341.4 L236.0,341.3 L236.3,341.2 L236.5,341.1 L236.7,341.0
		L237.0,340.9 L237.2,340.9 L237.5,340.8 L237.7,340.7 L238.0,340.6 L238.2,340.5 L238.5,340.4 L238.7,340.3
		L239.0,340.3 L239.2,340.2 L239.4,340.1 L239.7,340.0 L239.9,339.9 L240.2,339.8 L240.4,339.8 L240.7,339.7
		L240.9,339.6 L241.2,339.5 L241.4,339.4 L241.6,339.4 L241.9,339.3 L242.1,339.2 L242.4,339.1 L242.6,339.0
		L242.9,338.9 L243.1,338.9 L243.4,338.8 L243.6,338.7 L243.9,338.6 L244.1,338.5 L244.3,338.4 L244.6,338.4
		L244.8,338.3 L245.1,338.2 L245.3,338.1 L245.6,338.0 L245.8,337.9 L246.1,337.9 L246.3,337.8 L246.6,337.7
		L246.8,337.6 L247.0,337.5 L247.3,337.4 L247.5,337.4 L247.8,337.3 L248.0,337.2 L248.3,337.1 L248.5,337.0
		L248.8,336.9 L249.0,336.9 L249.3,336.8 L249.5,336.7 L249.7,336.6 L250.0,336.5 L250.2,336.4 L250.5,336.4
		L250.7,336.3 L251.0,336.2 L251.2,336.1 L251.5,336.0 L251.7,335.9 L251.9,335.9 L252.2,335.8 L252.4,335.7
		L252.7,335.6 L252.9,335.5 L253.2,335.4 L253.4,335.4 L253.7,335.3 L253.9,335.2 L254.2,335.1 L254.4,335.0
		L254.6,334.9 L254.9,334.9 L255.1,334.8 L255.4,334.7 L255.6,334.6 L255.9,334.5 L256.1,334.4 L256.4,334.4
		L256.6,334.3 L256.9,334.2 L257.1,334.1 L257.3,334.0 L257.6,333.9 L257.8,333.9 L258.1,333.8 L258.3,333.7
		L258.6,333.6 L258.8,333.5 L259.1,333.5 L259.3,333.4 L259.6,333.3 L259.8,333.2 L260.0,333.1 L260.3,333.1
		L260.5,333.0 L260.8,332.9 L261.0,332.8 L261.3,332.7 L261.5,332.7 L261.8,332.6 L262.0,332.5 L262.2,332.4
		L262.5,332.3 L262.7,332.3 L263.0,332.2 L263.2,332.1 L263.5,332.0 L263.7,332.0 L264.0,331.9 L264.2,331.8
		L264.5,331.7 L264.7,331.6 L264.9,331.6 L265.2,331.5 L265.4,331.4 L265.7,331.3 L265.9,331.2 L266.2,331.2
		L266.4,331.1 L266.7,331.0 L266.9,330.9 L267.2,330.9 L267.4,330.8 L267.6,330.7 L267.9,330.6 L268.1,330.5
		L268.4,330.5 L268.6,330.4 L268.9,330.3 L269.1,330.2 L269.4,330.1 L269.6,330.1 L269.9,330.0 L270.1,329.9
		L270.3,329.8 L270.6,329.7 L270.8,329.7 L271.1,329.6 L271.3,329.5 L271.6,329.4 L271.8,329.3 L272.1,329.2
		L272.3,329.1 L272.5,329.1 L272.8,329.0 L273.0,328.9 L273.3,328.8 L273.5,328.7 L273.8,328.6 L274.0,328.5
		L274.3,328.4 L274.5,328.4 L274.8,328.3 L275.0,328.2 L275.2,328.1 L275.5,328.0 L275.7,327.9 L276.0,327.8
		L276.2,327.7 L276.5,327.6 L276.7,327.6 L277.0,327.5 L277.2,327.4 L277.5,327.3 L277.7,327.2 L277.9,327.1
		L278.2,327.0 L278.4,326.9 L278.7,326.8 L278.9,326.7 L279.2,326.7 L279.4,326.6 L279.7,326.5 L279.9,326.4
		L280.2,326.3 L280.4,326.2 L280.6,326.1 L280.9,326.0 L281.1,325.9 L281.4,325.8 L281.6,325.8 L281.9,325.7
		L282.1,325.6 L282.4,325.5 L282.6,325.4 L282.8,325.3 L283.1,325.2 L283.3,325.2 L283.6,325.1 L283.8,325.0
		L284.1,324.9 L284.3,324.8 L284.6,324.7 L284.8,324.6 L285.1,324.6 L285.3,324.5 L285.5,324.4 L285.8,324.3
		L286.0,324.2 L286.3,324.2 L286.5,324.1 L286.8,324.0 L287.0,323.9 L287.3,323.8 L287.5,323.7 L287.8,323.7
		L288.0,323.6 L288.2,323.5 L288.5,323.4 L288.7,323.3 L289.0,323.3 L289.2,323.2 L289.5,323.1 L289.7,323.0
		L290.0,322.9 L290.2,322.9 L290.5,322.8 L290.7,322.7 L290.9,322.6 L291.2,322.6 L291.4,322.5 L291.7,322.4
		L291.9,322.3 L292.2,322.2 L292.4,322.2 L292.7,322.1 L292.9,322.0 L293.1,321.9 L293.4,321.9 L293.6,321.8
		L293.9,321.7 L294.1,321.6 L294.4,321.6 L294.6,321.5 L294.9,321.4 L295.1,321.3 L295.4,321.3 L295.6,321.2
		L295.8,321.1 L296.1,321.1 L296.3,321.0 L296.6,320.9 L296.8,320.9 L297.1,320.8 L297.3,320.7 L297.6,320.7
		L297.8,320.6 L298.1,320.5 L298.3,320.5 L298.5,320.4 L298.8,320.3 L299.0,320.3 L299.3,320.2 L299.5,320.1
		L299.8,320.1 L300.0,320.0 L300.3,319.9 L300.5,319.9 L300.7,319.8 L301.0,319.7 L301.2,319.7 L301.5,319.6
		L301.7,319.5 L302.0,319.5 L302.2,319.4 L302.5,319.3 L302.7,319.3 L303.0,319.2 L303.2,319.2 L303.4,319.1
		L303.7,319.0 L303.9,319.0 L304.2,318.9 L304.4,318.8 L304.7,318.8 L304.9,318.7 L305.2,318.6 L305.4,318.6
		L305.7,318.5 L305.9,318.4 L306.1,318.4 L306.4,318.3 L306.6,318.2 L306.9,318.2 L307.1,318.1 L307.4,318.0
		L307.6,318.0 L307.9,317.9 L308.1,317.8 L308.4,317.7 L308.6,317.7 L308.8,317.6 L309.1,317.5 L309.3,317.5
		L309.6,317.4 L309.8,317.3 L310.1,317.2 L310.3,317.2 L310.6,317.1 L310.8,317.0 L311.0,317.0 L311.3,316.9
		L311.5,316.8 L311.8,316.7 L312.0,316.7 L312.3,316.6 L312.5,316.5 L312.8,316.4 L313.0,316.4 L313.3,316.3
		L313.5,316.2 L313.7,316.1 L314.0,316.1 L314.2,316.0 L314.5,315.9 L314.7,315.8 L315.0,315.8 L315.2,315.7
		L315.5,315.6 L315.7,315.5 L316.0,315.5 L316.2,315.4 L316.4,315.3 L316.7,315.2 L316.9,315.2 L317.2,315.1
		L317.4,315.0 L317.7,314.9 L317.9,314.9 L318.2,314.8 L318.4,314.7 L318.7,314.6 L318.9,314.5 L319.1,314.5
		L319.4,314.4 L319.6,314.3 L319.9,314.2 L320.1,314.1 L320.4,314.1 L320.6,314.0 L320.9,313.9 L321.1,313.8
		L321.3,313.7 L321.6,313.7 L321.8,313.6 L322.1,313.5 L322.3,313.4 L322.6,313.3 L322.8,313.2 L323.1,313.2
		L323.3,313.1 L323.6,313.0 L323.8,312.9 L324.0,312.8 L324.3,312.7 L324.5,312.7 L324.8,312.6 L325.0,312.5
		L325.3,312.4 L325.5,312.3 L325.8,312.2 L326.0,312.1 L326.3,312.1 L326.5,312.0 L326.7,311.9 L327.0,311.8
		L327.2,311.7 L327.5,311.6 L327.7,311.5 L328.0,311.5 L328.2,311.4 L328.5,311.3 L328.7,311.2 L329.0,311.1
		L329.2,311.0 L329.4,310.9 L329.7,310.9 L329.9,310.8 L330.2,310.7 L330.4,310.6 L330.7,310.5 L330.9,310.4
		L331.2,310.3 L331.4,310.2 L331.6,310.1 L331.9,310.0 L332.1,309.9 L332.4,309.8 L332.6,309.7 L332.9,309.6
		L333.1,309.5 L333.4,309.4 L333.6,309.3 L333.9,309.2 L334.1,309.1 L334.3,309.0 L334.6,308.9 L334.8,308.8
		L335.1,308.7 L335.3,308.6 L335.6,308.5 L335.8,308.4 L336.1,308.3 L336.3,308.2 L336.6,308.1 L336.8,308.0
		L337.0,307.9 L337.3,307.8 L337.5,307.7 L337.8,307.6 L338.0,307.5 L338.3,307.4 L338.5,307.2 L338.8,307.1
		L339.0,307.0 L339.3,306.9 L339.5,306.8 L339.7,306.7 L340.0,306.6 L340.2,306.5 L340.5,306.4 L340.7,306.3
		L341.0,306.2 L341.2,306.0 L341.5,305.9 L341.7,305.8 L341.9,305.7 L342.2,305.6 L342.4,305.5 L342.7,305.4
		L342.9,305.3 L343.2,305.2 L343.4,305.1 L343.7,305.0 L343.9,304.9 L344.2,304.8 L344.4,304.7 L344.6,304.6
		L344.9,304.5 L345.1,304.4 L345.4,304.3 L345.6,304.3 L345.9,304.2 L346.1,304.1 L346.4,304.0 L346.6,303.9
		L346.9,303.8 L347.1,303.7 L347.3,303.6 L347.6,303.6 L347.8,303.5 L348.1,303.4 L348.3,303.3 L348.6,303.2
		L348.8,303.1 L349.1,303.0 L349.3,303.0 L349.6,302.9 L349.8,302.8 L350.0,302.7 L350.3,302.6 L350.5,302.6
		L350.8,302.5 L351.0,302.4 L351.3,302.3 L351.5,302.3 L351.8,302.2 L352.0,302.1 L352.2,302.0 L352.5,301.9
		L352.7,301.9 L353.0,301.8 L353.2,301.7 L353.5,301.6 L353.7,301.6 L354.0,301.5 L354.2,301.4 L354.5,301.3
		L354.7,301.3 L354.9,301.2 L355.2,301.1 L355.4,301.0 L355.7,300.9 L355.9,300.8 L356.2,300.7 L356.4,300.7
		L356.7,300.6 L356.9,300.5 L357.2,300.4 L357.4,300.3 L357.6,300.2 L357.9,300.1 L358.1,300.0 L358.4,299.9
		L358.6,299.9 L358.9,299.8 L359.1,299.7 L359.4,299.6 L359.6,299.5 L359.8,299.4 L360.1,299.3 L360.3,299.2
		L360.6,299.1 L360.8,299.0 L361.1,298.9 L361.3,298.8 L361.6,298.7 L361.8,298.6 L362.1,298.5 L362.3,298.4
		L362.5,298.3 L362.8,298.2 L363.0,298.1 L363.3,298.0 L363.5,297.9 L363.8,297.8 L364.0,297.7 L364.3,297.6
		L364.5,297.5 L364.8,297.4 L365.0,297.3 L365.2,297.2 L365.5,297.1 L365.7,297.0 L366.0,296.9 L366.2,296.8
		L366.5,296.7 L366.7,296.6 L367.0,296.5 L367.2,296.4 L367.5,296.3 L367.7,296.2 L367.9,296.1 L368.2,296.0
		L368.4,295.9 L368.7,295.8 L368.9,295.7 L369.2,295.6 L369.4,295.6 L369.7,295.5 L369.9,295.4 L370.1,295.3
		L370.4,295.2 L370.6,295.1 L370.9,295.0 L371.1,294.9 L371.4,294.8 L371.6,294.7 L371.9,294.6 L372.1,294.5
		L372.4,294.4 L372.6,294.3 L372.8,294.3 L373.1,294.2 L373.3,294.1 L373.6,294.0 L373.8,293.9 L374.1,293.8
		L374.3,293.7 L374.6,293.6 L374.8,293.5 L375.1,293.5 L375.3,293.4 L375.5,293.3 L375.8,293.2 L376.0,293.1
		L376.3,293.0 L376.5,292.9 L376.8,292.8 L377.0,292.7 L377.3,292.7 L377.5,292.6 L377.8,292.5 L378.0,292.4
		L378.2,292.3 L378.5,292.2 L378.7,292.1 L379.0,292.1 L379.2,292.0 L379.5,291.9 L379.7,291.8 L380.0,291.7
		L380.2,291.7 L380.4,291.6 L380.7,291.5 L380.9,291.4 L381.2,291.4 L381.4,291.3 L381.7,291.2 L381.9,291.1
		L382.2,291.1 L382.4,291.0 L382.7,290.9 L382.9,290.8 L383.1,290.8 L383.4,290.7 L383.6,290.6 L383.9,290.6
		L384.1,290.5 L384.4,290.4 L384.6,290.3 L384.9,290.3 L385.1,290.2 L385.4,290.1 L385.6,290.1 L385.8,290.0
		L386.1,289.9 L386.3,289.9 L386.6,289.8 L386.8,289.7 L387.1,289.7 L387.3,289.6 L387.6,289.5 L387.8,289.5
		L388.1,289.4 L388.3,289.3 L388.5,289.3 L388.8,289.2 L389.0,289.1 L389.3,289.1 L389.5,289.0 L389.8,289.0
		L390.0,288.9 L390.3,288.8 L390.5,288.8 L390.7,288.7 L391.0,288.6 L391.2,288.5 L391.5,288.5 L391.7,288.4
		L392.0,288.3 L392.2,288.2 L392.5,288.2 L392.7,288.1 L393.0,288.0 L393.2,287.9 L393.4,287.8 L393.7,287.8
		L393.9,287.7 L394.2,287.6 L394.4,287.5 L394.7,287.4 L394.9,287.3 L395.2,287.3 L395.4,287.2 L395.7,287.1
		L395.9,287.0 L396.1,286.9 L396.4,286.8 L396.6,286.7 L396.9,286.6 L397.1,286.5 L397.4,286.4 L397.6,286.3
		L397.9,286.3 L398.1,286.2 L398.4,286.1 L398.6,286.0 L398.8,285.9 L399.1,285.8 L399.3,285.7 L399.6,285.6
		L399.8,285.5 L400.1,285.4 L400.3,285.3 L400.6,285.2 L400.8,285.1 L401.0,285.0 L401.3,284.9 L401.5,284.8
		L401.8,284.7 L402.0,284.6 L402.3,284.5 L402.5,284.4 L402.8,284.3 L403.0,284.2 L403.3,284.1 L403.5,284.0
		L403.7,283.9 L404.0,283.8 L404.2,283.7 L404.5,283.6 L404.7,283.5 L405.0,283.4 L405.2,283.3 L405.5,283.2
		L405.7,283.1 L406.0,283.0 L406.2,282.9 L406.4,282.8 L406.7,282.7 L406.9,282.6 L407.2,282.5 L407.4,282.4
		L407.7,282.2 L407.9,282.1 L408.2,282.0 L408.4,281.9 L408.7,281.8 L408.9,281.7 L409.1,281.6 L409.4,281.5
		L409.6,281.4 L409.9,281.3 L410.1,281.2 L410.4,281.1 L410.6,281.0 L410.9,280.9 L411.1,280.8 L411.3,280.7
		L411.6,280.6 L411.8,280.5 L412.1,280.4 L412.3,280.3 L412.6,280.1 L412.8,280.0 L413.1,279.9 L413.3,279.8
		L413.6,279.7 L413.8,279.6 L414.0,279.5 L414.3,279.4 L414.5,279.3 L414.8,279.2 L415.0,279.1 L415.3,279.0
		L415.5,278.9 L415.8,278.8 L416.0,278.7 L416.3,278.5 L416.5,278.4 L416.7,278.3 L417.0,278.2 L417.2,278.1
		L417.5,278.0 L417.7,277.9 L418.0,277.8 L418.2,277.7 L418.5,277.6 L418.7,277.4 L418.9,277.3 L419.2,277.2
		L419.4,277.1 L419.7,277.0 L419.9,276.9 L420.2,276.8 L420.4,276.7 L420.7,276.6 L420.9,276.4 L421.2,276.3
		L421.4,276.2 L421.6,276.1 L421.9,276.0 L422.1,275.9 L422.4,275.8 L422.6,275.7 L422.9,275.5 L423.1,275.4
		L423.4,275.3 L423.6,275.2 L423.9,275.1 L424.1,275.0 L424.3,274.9 L424.6,274.7 L424.8,274.6 L425.1,274.5
		L425.3,274.4 L425.6,274.3 L425.8,274.2 L426.1,274.1 L426.3,273.9 L426.6,273.8 L426.8,273.7 L427.0,273.6
		L427.3,273.5 L427.5,273.4 L427.8,273.3 L428.0,273.2 L428.3,273.0 L428.5,272.9 L428.8,272.8 L429.0,272.7
		L429.2,272.6 L429.5,272.5 L429.7,272.4 L430.0,272.3 L430.2,272.2 L430.5,272.1 L430.7,272.0 L431.0,271.9
		L431.2,271.8 L431.5,271.7 L431.7,271.6 L431.9,271.5 L432.2,271.4 L432.4,271.3 L432.7,271.3 L432.9,271.2
		L433.2,271.1 L433.4,271.0 L433.7,270.9 L433.9,270.8 L434.2,270.7 L434.4,270.6 L434.6,270.5 L434.9,270.4
		L435.1,270.4 L435.4,270.3 L435.6,270.2 L435.9,270.1 L436.1,270.0 L436.4,269.9 L436.6,269.8 L436.9,269.8
		L437.1,269.7 L437.3,269.6 L437.6,269.5 L437.8,269.4 L438.1,269.3 L438.3,269.3 L438.6,269.2 L438.8,269.1
		L439.1,269.0 L439.3,268.9 L439.5,268.8 L439.8,268.8 L440.0,268.7 L440.3,268.6 L440.5,268.5 L440.8,268.4
		L441.0,268.3 L441.3,268.3 L441.5,268.2 L441.8,268.1 L442.0,268.0 L442.2,267.9 L442.5,267.8 L442.7,267.7
		L443.0,267.6 L443.2,267.6 L443.5,267.5 L443.7,267.4 L444.0,267.3 L444.2,267.2 L444.5,267.1 L444.7,267.0
		L444.9,266.9 L445.2,266.8 L445.4,266.7 L445.7,266.7 L445.9,266.6 L446.2,266.5 L446.4,266.4 L446.7,266.3
		L446.9,266.2 L447.2,266.1 L447.4,266.0 L447.6,265.9 L447.9,265.8 L448.1,265.7 L448.4,265.6 L448.6,265.6
		L448.9,265.5 L449.1,265.4 L449.4,265.3 L449.6,265.2 L449.8,265.1 L450.1,265.0 L450.3,264.9 L450.6,264.8
		L450.8,264.7 L451.1,264.6 L451.3,264.5 L451.6,264.4 L451.8,264.3 L452.1,264.2 L452.3,264.1 L452.5,264.1
		L452.8,264.0 L453.0,263.9 L453.3,263.8 L453.5,263.7 L453.8,263.6 L454.0,263.5 L454.3,263.4 L454.5,263.4
		L454.8,263.3 L455.0,263.2 L455.2,263.1 L455.5,263.0 L455.7,262.9 L456.0,262.9 L456.2,262.8 L456.5,262.7
		L456.7,262.6 L457.0,262.5 L457.2,262.5 L457.5,262.4 L457.7,262.3 L457.9,262.2 L458.2,262.1 L458.4,262.1
		L458.7,262.0 L458.9,261.9 L459.2,261.8 L459.4,261.8 L459.7,261.7 L459.9,261.6 L460.1,261.5 L460.4,261.5
		L460.6,261.4 L460.9,261.3 L461.1,261.2 L461.4,261.2 L461.6,261.1 L461.9,261.0 L462.1,260.9 L462.4,260.9
		L462.6,260.8 L462.8,260.7 L463.1,260.7 L463.3,260.6 L463.6,260.5 L463.8,260.4 L464.1,260.4 L464.3,260.3
		L464.6,260.2 L464.8,260.1 L465.1,260.1 L465.3,260.0 L465.5,259.9 L465.8,259.8 L466.0,259.7 L466.3,259.7
		L466.5,259.6 L466.8,259.5 L467.0,259.4 L467.3,259.3 L467.5,259.2 L467.8,259.2 L468.0,259.1 L468.2,259.0
		L468.5,258.9 L468.7,258.8 L469.0,258.7 L469.2,258.6 L469.5,258.6 L469.7,258.5 L470.0,258.4 L470.2,258.3
		L470.4,258.2 L470.7,258.1 L470.9,258.0 L471.2,257.9 L471.4,257.8 L471.7,257.8 L471.9,257.7 L472.2,257.6
		L472.4,257.5 L472.7,257.4 L472.9,257.3 L473.1,257.2 L473.4,257.1 L473.6,257.0 L473.9,256.9 L474.1,256.8
		L474.4,256.7 L474.6,256.7 L474.9,256.6 L475.1,256.5 L475.4,256.4 L475.6,256.3 L475.8,256.2 L476.1,256.1
		L476.3,256.0 L476.6,255.9 L476.8,255.8 L477.1,255.7 L477.3,255.6 L477.6,255.5 L477.8,255.4 L478.0,255.4
		L478.3,255.3 L478.5,255.2 L478.8,255.1 L479.0,255.0 L479.3,254.9 L479.5,254.8 L479.8,254.7 L480.0,254.6
		L480.3,254.6 L480.5,254.5 L480.7,254.4 L481.0,254.3 L481.2,254.2 L481.5,254.1 L481.7,254.1 L482.0,254.0
		L482.2,253.9 L482.5,253.8 L482.7,253.7 L483.0,253.6 L483.2,253.6 L483.4,253.5 L483.7,253.4 L483.9,253.3
		L484.2,253.2 L484.4,253.1 L484.7,253.1 L484.9,253.0 L485.2,252.9 L485.4,252.8 L485.7,252.7 L485.9,252.7
		L486.1,252.6 L486.4,252.5 L486.6,252.4 L486.9,252.3 L487.1,252.3 L487.4,252.2 L487.6,252.1 L487.9,252.0
		L488.1,251.9 L488.3,251.9 L488.6,251.8 L488.8,251.7 L489.1,251.6 L489.3,251.5 L489.6,251.4 L489.8,251.4
		L490.1,251.3 L490.3,251.2 L490.6,251.1 L490.8,251.0 L491.0,250.9 L491.3,250.8 L491.5,250.7 L491.8,250.6
		L492.0,250.5 L492.3,250.5 L492.5,250.4 L492.8,250.3 L493.0,250.2 L493.3,250.1 L493.5,250.0 L493.7,249.9
		L494.0,249.8 L494.2,249.7 L494.5,249.6 L494.7,249.5 L495.0,249.4 L495.2,249.3 L495.5,249.2 L495.7,249.1
		L496.0,249.0 L496.2,248.9 L496.4,248.8 L496.7,248.6 L496.9,248.5 L497.2,248.4 L497.4,248.3 L497.7,248.2
		L497.9,248.1 L498.2,248.0 L498.4,247.9 L498.6,247.8 L498.9,247.7 L499.1,247.6 L499.4,247.5 L499.6,247.4
		L499.9,247.3 L500.1,247.2 L500.4,247.1 L500.6,246.9 L500.9,246.8 L501.1,246.7 L501.3,246.6 L501.6,246.5
		L501.8,246.4 L502.1,246.3 L502.3,246.2 L502.6,246.1 L502.8,246.0 L503.1,245.9 L503.3,245.7 L503.6,245.6
		L503.8,245.5 L504.0,245.4 L504.3,245.3 L504.5,245.2 L504.8,245.1 L505.0,245.0 L505.3,244.9 L505.5,244.8
		L505.8,244.7 L506.0,244.5 L506.3,244.4 L506.5,244.3 L506.7,244.2 L507.0,244.1 L507.2,244.0 L507.5,243.9
		L507.7,243.8 L508.0,243.7 L508.2,243.6 L508.5,243.5 L508.7,243.3 L508.9,243.2 L509.2,243.1 L509.4,243.0
		L509.7,242.9 L509.9,242.8 L510.2,242.7 L510.4,242.6 L510.7,242.5 L510.9,242.4 L511.2,242.3 L511.4,242.2
		L511.6,242.0 L511.9,241.9 L512.1,241.8 L512.4,241.7 L512.6,241.6 L512.9,241.5 L513.1,241.4 L513.4,241.3
		L513.6,241.2 L513.9,241.1 L514.1,241.0 L514.3,240.8 L514.6,240.7 L514.8,240.6 L515.1,240.5 L515.3,240.4
		L515.6,240.3 L515.8,240.2 L516.1,240.1 L516.3,240.0 L516.6,239.9 L516.8,239.7 L517.0,239.6 L517.3,239.5
		L517.5,239.4 L517.8,239.3 L518.0,239.2 L518.3,239.1 L518.5,239.0 L518.8,238.9 L519.0,238.8 L519.2,238.7
		L519.5,238.5 L519.7,238.4 L520.0,238.3 L520.2,238.2 L520.5,238.1 L520.7,238.0 L521.0,237.9 L521.2,237.8
		L521.5,237.7 L521.7,237.5 L521.9,237.4 L522.2,237.3 L522.4,237.2 L522.7,237.1 L522.9,237.0 L523.2,236.9
		L523.4,236.8 L523.7,236.7 L523.9,236.6 L524.2,236.4 L524.4,236.3 L524.6,236.2 L524.9,236.1 L525.1,236.0
		L525.4,235.9 L525.6,235.8 L525.9,235.7 L526.1,235.6 L526.4,235.5 L526.6,235.4 L526.9,235.3 L527.1,235.2
		L527.3,235.1 L527.6,235.0 L527.8,234.9 L528.1,234.8 L528.3,234.7 L528.6,234.6 L528.8,234.5 L529.1,234.4
		L529.3,234.3 L529.5,234.3 L529.8,234.2 L530.0,234.1 L530.3,234.0 L530.5,233.9 L530.8,233.8 L531.0,233.8
		L531.3,233.7 L531.5,233.6 L531.8,233.5 L532.0,233.4 L532.2,233.4 L532.5,233.3 L532.7,233.2 L533.0,233.1
		L533.2,233.1 L533.5,233.0 L533.7,232.9 L534.0,232.8 L534.2,232.8 L534.5,232.7 L534.7,232.6 L534.9,232.5
		L535.2,232.5 L535.4,232.4 L535.7,232.3 L535.9,232.3 L536.2,232.2 L536.4,232.1 L536.7,232.1 L536.9,232.0
		L537.2,231.9 L537.4,231.9 L537.6,231.8 L537.9,231.7 L538.1,231.6 L538.4,231.6 L538.6,231.5 L538.9,231.4
		L539.1,231.3 L539.4,231.3 L539.6,231.2 L539.8,231.1 L540.1,231.0 L540.3,230.9 L540.6,230.8 L540.8,230.8
		L541.1,230.7 L541.3,230.6 L541.6,230.5 L541.8,230.4 L542.1,230.3 L542.3,230.2 L542.5,230.1 L542.8,230.0
		L543.0,230.0 L543.3,229.9 L543.5,229.8 L543.8,229.7 L544.0,229.6 L544.3,229.5 L544.5,229.4 L544.8,229.3
		L545.0,229.2 L545.2,229.1 L545.5,229.0 L545.7,228.9 L546.0,228.8 L546.2,228.7 L546.5,228.6 L546.7,228.5
		L547.0,228.4 L547.2,228.3 L547.4,228.2 L547.7,228.1 L547.9,228.0 L548.2,227.9 L548.4,227.8 L548.7,227.7
		L548.9,227.6 L549.2,227.5 L549.4,227.4 L549.7,227.3 L549.9,227.2 L550.1,227.1 L550.4,227.0 L550.6,226.9
		L550.9,226.8 L551.1,226.7 L551.4,226.6 L551.6,226.5 L551.9,226.4 L552.1,226.3 L552.4,226.2 L552.6,226.2
		L552.8,226.1 L553.1,226.0 L553.3,225.9 L553.6,225.8 L553.8,225.7 L554.1,225.7 L554.3,225.6 L554.6,225.5
		L554.8,225.4 L555.1,225.3 L555.3,225.3 L555.5,225.2 L555.8,225.1 L556.0,225.0 L556.3,225.0 L556.5,224.9
		L556.8,224.8 L557.0,224.7 L557.3,224.7 L557.5,224.6 L557.7,224.5 L558.0,224.4 L558.2,224.4 L558.5,224.3
		L558.7,224.2 L559.0,224.2 L559.2,224.1 L559.5,224.0 L559.7,224.0 L560.0,223.9 L560.2,223.8 L560.4,223.7
		L560.7,223.7 L560.9,223.6 L561.2,223.5 L561.4,223.5 L561.7,223.4 L561.9,223.3 L562.2,223.3 L562.4,223.2
		L562.7,223.1 L562.9,223.1 L563.1,223.0 L563.4,222.9 L563.6,222.9 L563.9,222.8 L564.1,222.7 L564.4,222.6
		L564.6,222.6 L564.9,222.5 L565.1,222.4 L565.4,222.3 L565.6,222.2 L565.8,222.2 L566.1,222.1 L566.3,222.0
		L566.6,221.9 L566.8,221.8 L567.1,221.8 L567.3,221.7 L567.6,221.6 L567.8,221.5 L568.0,221.4 L568.3,221.3
		L568.5,221.3 L568.8,221.2 L569.0,221.1 L569.3,221.0 L569.5,220.9 L569.8,220.8 L570.0,220.7 L570.3,220.7
		L570.5,220.6 L570.7,220.5 L571.0,220.4 L571.2,220.3 L571.5,220.2 L571.7,220.1 L572.0,220.0 L572.2,220.0
		L572.5,219.9 L572.7,219.8 L573.0,219.7 L573.2,219.6 L573.4,219.5 L573.7,219.4 L573.9,219.3 L574.2,219.2
		L574.4,219.1 L574.7,219.1 L574.9,219.0 L575.2,218.9 L575.4,218.8 L575.7,218.7 L575.9,218.6 L576.1,218.5
		L576.4,218.4 L576.6,218.3 L576.9,218.2 L577.1,218.1 L577.4,218.0 L577.6,218.0 L577.9,217.9 L578.1,217.8
		L578.3,217.7 L578.6,217.6 L578.8,217.5 L579.1,217.4 L579.3,217.3 L579.6,217.2 L579.8,217.1 L580.1,217.0
		L580.3,216.9 L580.6,216.8 L580.8,216.7 L581.0,216.6 L581.3,216.5 L581.5,216.4 L581.8,216.3 L582.0,216.2
		L582.3,216.2 L582.5,216.1 L582.8,216.0 L583.0,215.9 L583.3,215.8 L583.5,215.7 L583.7,215.6 L584.0,215.5
		L584.2,215.4 L584.5,215.3 L584.7,215.2 L585.0,215.1 L585.2,215.0 L585.5,214.9 L585.7,214.8 L586.0,214.7
		L586.2,214.6 L586.4,214.5 L586.7,214.4 L586.9,214.3 L587.2,214.2 L587.4,214.1 L587.7,214.0 L587.9,213.9
		L588.2,213.8 L588.4,213.7 L588.6,213.6 L588.9,213.5 L589.1,213.4 L589.4,213.3 L589.6,213.2 L589.9,213.1
		L590.1,213.0 L590.4,212.9 L590.6,212.8 L590.9,212.7 L591.1,212.6 L591.3,212.5 L591.6,212.4 L591.8,212.3
		L592.1,212.2 L592.3,212.1 L592.6,212.0 L592.8,211.9 L593.1,211.9 L593.3,211.8 L593.6,211.7 L593.8,211.6
		L594.0,211.5 L594.3,211.4 L594.5,211.3 L594.8,211.2 L595.0,211.1 L595.3,211.0 L595.5,210.9 L595.8,210.8
		L596.0,210.7 L596.3,210.6 L596.5,210.5 L596.7,210.4 L597.0,210.3 L597.2,210.2 L597.5,210.1 L597.7,210.0
		L598.0,209.9 L598.2,209.8 L598.5,209.7 L598.7,209.6 L598.9,209.5 L599.2,209.4 L599.4,209.3 L599.7,209.2
		L599.9,209.1 L600.2,209.0 L600.4,208.9 L600.7,208.8 L600.9,208.7 L601.2,208.6 L601.4,208.5 L601.6,208.4
		L601.9,208.3 L602.1,208.2 L602.4,208.1 L602.6,207.9 L602.9,207.8 L603.1,207.7 L603.4,207.6 L603.6,207.5
		L603.9,207.4 L604.1,207.3 L604.3,207.2 L604.6,207.1 L604.8,207.0 L605.1,206.9 L605.3,206.8 L605.6,206.7
		L605.8,206.6 L606.1,206.5 L606.3,206.4 L606.5,206.3 L606.8,206.2 L607.0,206.1 L607.3,205.9 L607.5,205.8
		L607.8,205.7 L608.0,205.6 L608.3,205.5 L608.5,205.4 L608.8,205.3 L609.0,205.2 L609.2,205.1 L609.5,205.0
		L609.7,204.9 L610.0,204.8 L610.2,204.7 L610.5,204.6 L610.7,204.4 L611.0,204.3 L611.2,204.2 L611.5,204.1
		L611.7,204.0 L611.9,203.9 L612.2,203.8 L612.4,203.7 L612.7,203.6 L612.9,203.5 L613.2,203.4 L613.4,203.3
		L613.7,203.2 L613.9,203.1 L614.2,203.0 L614.4,202.9 L614.6,202.8 L614.9,202.7 L615.1,202.6 L615.4,202.5
		L615.6,202.3 L615.9,202.2 L616.1,202.1 L616.4,202.0 L616.6,201.9 L616.8,201.8 L617.1,201.7 L617.3,201.6
		L617.6,201.5 L617.8,201.4 L618.1,201.3 L618.3,201.2 L618.6,201.1 L618.8,201.0 L619.1,200.9 L619.3,200.8
		L619.5,200.8 L619.8,200.7 L620.0,200.6 L620.3,200.5 L620.5,200.4 L620.8,200.3 L621.0,200.2 L621.3,200.1
		L621.5,200.0 L621.8,199.9 L622.0,199.8 L622.2,199.7 L622.5,199.6 L622.7,199.5 L623.0,199.4 L623.2,199.3
		L623.5,199.2 L623.7,199.1 L624.0,199.0 L624.2,198.9 L624.5,198.8 L624.7,198.7 L624.9,198.6 L625.2,198.6
		L625.4,198.5 L625.7,198.4 L625.9,198.3 L626.2,198.2 L626.4,198.1 L626.7,198.1 L626.9,198.0 L627.1,197.9
		L627.4,197.8 L627.6,197.7 L627.9,197.7 L628.1,197.6 L628.4,197.5 L628.6,197.4 L628.9,197.4 L629.1,197.3
		L629.4,197.2 L629.6,197.1 L629.8,197.1 L630.1,197.0 L630.3,196.9 L630.6,196.8 L630.8,196.8 L631.1,196.7
		L631.3,196.6 L631.6,196.6 L631.8,196.5 L632.1,196.4 L632.3,196.4 L632.5,196.3 L632.8,196.2 L633.0,196.1
		L633.3,196.1 L633.5,196.0 L633.8,195.9 L634.0,195.9 L634.3,195.8 L634.5,195.7 L634.8,195.7 L635.0,195.6
		L635.2,195.6 L635.5,195.5 L635.7,195.4 L636.0,195.4 L636.2,195.3 L636.5,195.2 L636.7,195.2 L637.0,195.1
		L637.2,195.0 L637.4,194.9 L637.7,194.9 L637.9,194.8 L638.2,194.7 L638.4,194.7 L638.7,194.6 L638.9,194.5
		L639.2,194.5 L639.4,194.4 L639.7,194.3 L639.9,194.2 L640.1,194.2 L640.4,194.1 L640.6,194.0 L640.9,193.9
		L641.1,193.9 L641.4,193.8 L641.6,193.7 L641.9,193.7 L642.1,193.6 L642.4,193.5 L642.6,193.4 L642.8,193.4
		L643.1,193.3 L643.3,193.2 L643.6,193.1 L643.8,193.1 L644.1,193.0 L644.3,192.9 L644.6,192.8 L644.8,192.8
		L645.1,192.7 L645.3,192.6 L645.5,192.5 L645.8,192.5 L646.0,192.4 L646.3,192.3 L646.5,192.2 L646.8,192.2
		L647.0,192.1 L647.3,192.0 L647.5,191.9 L647.7,191.9 L648.0,191.8 L648.2,191.7 L648.5,191.6 L648.7,191.6
		L649.0,191.5 L649.2,191.4 L649.5,191.3 L649.7,191.2 L650.0,191.1 L650.2,191.1 L650.4,191.0 L650.7,190.9
		L650.9,190.8 L651.2,190.7 L651.4,190.6 L651.7,190.5 L651.9,190.4 L652.2,190.3 L652.4,190.3 L652.7,190.2
		L652.9,190.1 L653.1,190.0 L653.4,189.9 L653.6,189.8 L653.9,189.7 L654.1,189.6 L654.4,189.5 L654.6,189.4
		L654.9,189.3 L655.1,189.2 L655.4,189.1 L655.6,189.0 L655.8,188.9 L656.1,188.8 L656.3,188.8 L656.6,188.7
		L656.8,188.6 L657.1,188.5 L657.3,188.4 L657.6,188.3 L657.8,188.2 L658.0,188.1 L658.3,188.0 L658.5,187.9
		L658.8,187.8 L659.0,187.7 L659.3,187.6 L659.5,187.5 L659.8,187.4 L660.0,187.3 L660.3,187.2 L660.5,187.1
		L660.7,187.0 L661.0,186.9 L661.2,186.8 L661.5,186.7 L661.7,186.6 L662.0,186.5 L662.2,186.4 L662.5,186.3
		L662.7,186.2 L663.0,186.1 L663.2,186.0 L663.4,185.8 L663.7,185.7 L663.9,185.6 L664.2,185.5 L664.4,185.4
		L664.7,185.3 L664.9,185.2 L665.2,185.1 L665.4,185.0 L665.6,184.9 L665.9,184.8 L666.1,184.7 L666.4,184.6
		L666.6,184.5 L666.9,184.4 L667.1,184.3 L667.4,184.2 L667.6,184.1 L667.9,184.0 L668.1,183.8 L668.3,183.7
		L668.6,183.6 L668.8,183.5 L669.1,183.4 L669.3,183.3 L669.6,183.2 L669.8,183.1 L670.1,183.0 L670.3,182.9
		L670.6,182.8 L670.8,182.7 L671.0,182.6 L671.3,182.4 L671.5,182.3 L671.8,182.2 L672.0,182.1 L672.3,182.0
		L672.5,181.9 L672.8,181.8 L673.0,181.7 L673.3,181.6 L673.5,181.5 L673.7,181.4 L674.0,181.3 L674.2,181.2
		L674.5,181.1 L674.7,181.0 L675.0,180.9 L675.2,180.8 L675.5,180.7 L675.7,180.6 L675.9,180.5 L676.2,180.4
		L676.4,180.3 L676.7,180.2 L676.9,180.1 L677.2,180.0 L677.4,179.9 L677.7,179.8 L677.9,179.7 L678.2,179.7
		L678.4,179.6 L678.6,179.5 L678.9,179.4 L679.1,179.3 L679.4,179.2 L679.6,179.1 L679.9,179.0 L680.1,179.0
		L680.4,178.9 L680.6,178.8 L680.9,178.7 L681.1,178.6 L681.3,178.5 L681.6,178.4 L681.8,178.4 L682.1,178.3
		L682.3,178.2 L682.6,178.1 L682.8,178.0 L683.1,177.9 L683.3,177.8 L683.6,177.8 L683.8,177.7 L684.0,177.6
		L684.3,177.5 L684.5,177.4 L684.8,177.4 L685.0,177.3 L685.3,177.2 L685.5,177.1 L685.8,177.0 L686.0,176.9
		L686.2,176.8 L686.5,176.7 L686.7,176.7 L687.0,176.6 L687.2,176.5 L687.5,176.4 L687.7,176.3 L688.0,176.2
		L688.2,176.1 L688.5,176.0 L688.7,175.9 L688.9,175.8 L689.2,175.7 L689.4,175.6 L689.7,175.5 L689.9,175.4
		L690.2,175.3 L690.4,175.2 L690.7,175.1 L690.9,175.0 L691.2,174.9 L691.4,174.8 L691.6,174.7 L691.9,174.6
		L692.1,174.5 L692.4,174.4 L692.6,174.3 L692.9,174.2 L693.1,174.1 L693.4,174.0 L693.6,173.9 L693.9,173.8
		L694.1,173.6 L694.3,173.5 L694.6,173.4 L694.8,173.3 L695.1,173.2 L695.3,173.1 L695.6,173.0 L695.8,172.9
		L696.1,172.8 L696.3,172.7 L696.5,172.6 L696.8,172.5 L697.0,172.4 L697.3,172.2 L697.5,172.1 L697.8,172.0
		L698.0,171.9 L698.3,171.8 L698.5,171.7 L698.8,171.6 L699.0,171.5 L699.2,171.4 L699.5,171.3 L699.7,171.2
		L700.0,171.2 L700.2,171.1 L700.5,171.0 L700.7,170.9 L701.0,170.8 L701.2,170.7 L701.5,170.6 L701.7,170.5
		L701.9,170.4 L702.2,170.4 L702.4,170.3 L702.7,170.2 L702.9,170.1 L703.2,170.0 L703.4,169.9 L703.7,169.9
		L703.9,169.8 L704.2,169.7 L704.4,169.6 L704.6,169.5 L704.9,169.5 L705.1,169.4 L705.4,169.3 L705.6,169.2
		L705.9,169.2 L706.1,169.1 L706.4,169.0 L706.6,168.9 L706.8,168.9 L707.1,168.8 L707.3,168.7 L707.6,168.6
		L707.8,168.6 L708.1,168.5 L708.3,168.4 L708.6,168.4 L708.8,168.3 L709.1,168.2 L709.3,168.1 L709.5,168.1
		L709.8,168.0 L710.0,167.9 L710.3,167.8 L710.5,167.8 L710.8,167.7 L711.0,167.6 L711.3,167.5 L711.5,167.4
		L711.8,167.3 L712.0,167.3 L712.2,167.2 L712.5,167.1 L712.7,167.0 L713.0,166.9 L713.2,166.8 L713.5,166.7
		L713.7,166.6 L714.0,166.5 L714.2,166.5 L714.5,166.4 L714.7,166.3 L714.9,166.2 L715.2,166.1 L715.4,166.0
		L715.7,165.9 L715.9,165.8 L716.2,165.7 L716.4,165.6 L716.7,165.5 L716.9,165.4 L717.1,165.3 L717.4,165.2
		L717.6,165.1 L717.9,165.0 L718.1,164.9 L718.4,164.8 L718.6,164.7 L718.9,164.6 L719.1,164.5 L719.4,164.4
		L719.6,164.3 L719.8,164.2 L720.1,164.1 L720.3,164.0 L720.6,163.9 L720.8,163.8 L721.1,163.7 L721.3,163.6
		L721.6,163.5 L721.8,163.4 L722.1,163.3 L722.3,163.2 L722.5,163.1 L722.8,163.0 L723.0,162.9 L723.3,162.8
		L723.5,162.7 L723.8,162.6 L724.0,162.5 L724.3,162.4 L724.5,162.3 L724.7,162.2 L725.0,162.1 L725.2,162.0
		L725.5,162.0 L725.7,161.9 L726.0,161.8 L726.2,161.7 L726.5,161.6 L726.7,161.5 L727.0,161.4 L727.2,161.3
		L727.4,161.3 L727.7,161.2 L727.9,161.1 L728.2,161.0 L728.4,160.9 L728.7,160.8 L728.9,160.7 L729.2,160.7
		L729.4,160.6 L729.7,160.5 L729.9,160.4 L730.1,160.3 L730.4,160.2 L730.6,160.2 L730.9,160.1 L731.1,160.0
		L731.4,159.9 L731.6,159.8 L731.9,159.8 L732.1,159.7 L732.4,159.6 L732.6,159.5 L732.8,159.4 L733.1,159.4
		L733.3,159.3 L733.6,159.2 L733.8,159.1 L734.1,159.0 L734.3,159.0 L734.6,158.9 L734.8,158.8 L735.0,158.7
		L735.3,158.6 L735.5,158.6 L735.8,158.5 L736.0,158.4 L736.3,158.3 L736.5,158.2 L736.8,158.2 L737.0,158.1
		L737.3,158.0 L737.5,157.9 L737.7,157.8 L738.0,157.8 L738.2,157.7 L738.5,157.6 L738.7,157.5 L739.0,157.4
		L739.2,157.3 L739.5,157.3 L739.7,157.2 L740.0,157.1 L740.2,157.0 L740.4,156.9 L740.7,156.9 L740.9,156.8
		L741.2,156.7 L741.4,156.6 L741.7,156.5 L741.9,156.5 L742.2,156.4 L742.4,156.3 L742.7,156.2 L742.9,156.1
		L743.1,156.1 L743.4,156.0 L743.6,155.9 L743.9,155.8 L744.1,155.7 L744.4,155.6 L744.6,155.6 L744.9,155.5
		L745.1,155.4 L745.3,155.3 L745.6,155.2 L745.8,155.2 L746.1,155.1 L746.3,155.0 L746.6,154.9 L746.8,154.8
		L747.1,154.7 L747.3,154.7 L747.6,154.6 L747.8,154.5 L748.0,154.4 L748.3,154.3 L748.5,154.3 L748.8,154.2
		L749.0,154.1 L749.3,154.0 L749.5,153.9 L749.8,153.9 L750.0,153.8 L750.3,153.7 L750.5,153.6 L750.7,153.5
		L751.0,153.4 L751.2,153.4 L751.5,153.3 L751.7,153.2 L752.0,153.1 L752.2,153.0 L752.5,153.0 L752.7,152.9
		L753.0,152.8 L753.2,152.7 L753.4,152.6 L753.7,152.5 L753.9,152.5 L754.2,152.4 L754.4,152.3 L754.7,152.2
		L754.9,152.1 L755.2,152.1 L755.4,152.0 L755.6,151.9 L755.9,151.8 L756.1,151.7 L756.4,151.6 L756.6,151.6
		L756.9,151.5 L757.1,151.4 L757.4,151.3 L757.6,151.2 L757.9,151.2 L758.1,151.1 L758.3,151.0 L758.6,150.9
		L758.8,150.8 L759.1,150.8 L759.3,150.7 L759.6,150.6 L759.8,150.5 L760.1,150.4 L760.3,150.4 L760.6,150.3
		L760.8,150.2 L761.0,150.1 L761.3,150.1 L761.5,150.0 L761.8,149.9 L762.0,149.8 L762.3,149.8 L762.5,149.7
		L762.8,149.6 L763.0,149.6 L763.3,149.5 L763.5,149.4 L763.7,149.3 L764.0,149.3 L764.2,149.2 L764.5,149.1
		L764.7,149.1 L765.0,149.0 L765.2,148.9 L765.5,148.8 L765.7,148.8 L765.9,148.7 L766.2,148.6 L766.4,148.6
		L766.7,148.5 L766.9,148.4 L767.2,148.4 L767.4,148.3 L767.7,148.2 L767.9,148.2 L768.2,148.1 L768.4,148.0
		L768.6,148.0 L768.9,147.9 L769.1,147.8 L769.4,147.8 L769.6,147.7 L769.9,147.6 L770.1,147.6 L770.4,147.5
		L770.6,147.4 L770.9,147.4 L771.1,147.3 L771.3,147.2 L771.6,147.2 L771.8,147.1 L772.1,147.0 L772.3,147.0
		L772.6,146.9 L772.8,146.8 L773.1,146.8 L773.3,146.7 L773.6,146.6 L773.8,146.6 L774.0,146.5 L774.3,146.4
		L774.5,146.4 L774.8,146.3 L775.0,146.3 L775.3,146.2 L775.5,146.1 L775.8,146.1 L776.0,146.0 L776.2,145.9
		L776.5,145.9 L776.7,145.8 L777.0,145.7 L777.2,145.7 L777.5,145.6 L777.7,145.6 L778.0,145.5 L778.2,145.4
		L778.5,145.4 L778.7,145.3 L778.9,145.2 L779.2,145.2 L779.4,145.1 L779.7,145.0 L779.9,145.0 L780.2,144.9
		L780.4,144.9 L780.7,144.8 L780.9,144.7 L781.2,144.7 L781.4,144.6 L781.6,144.5 L781.9,144.5 L782.1,144.4
		L782.4,144.4 L782.6,144.3 L782.9,144.2 L783.1,144.2 L783.4,144.1 L783.6,144.0 L783.8,144.0 L784.1,143.9
		L784.3,143.9 L784.6,143.8 L784.8,143.7 L785.1,143.7 L785.3,143.6 L785.6,143.5 L785.8,143.5 L786.1,143.4
		L786.3,143.3 L786.5,143.3 L786.8,143.2 L787.0,143.1 L787.3,143.1 L787.5,143.0 L787.8,143.0 L788.0,142.9
		L788.3,142.8 L788.5,142.8 L788.8,142.7 L789.0,142.6 L789.2,142.6 L789.5,142.5 L789.7,142.4 L790.0,142.4
		L790.2,142.3 L790.5,142.2 L790.7,142.2 L791.0,142.1 L791.2,142.0 L791.5,142.0 L791.7,141.9 L791.9,141.8
		L792.2,141.8 L792.4,141.7 L792.7,141.7 L792.9,141.6 L793.2,141.5 L793.4,141.5 L793.7,141.4 L793.9,141.3
		L794.1,141.3 L794.4,141.2 L794.6,141.1 L794.9,141.1 L795.1,141.0 L795.4,140.9 L795.6,140.9 L795.9,140.8
		L796.1,140.7 L796.4,140.7 L796.6,140.6 L796.8,140.5 L797.1,140.5 L797.3,140.4 L797.6,140.3 L797.8,140.3
		L798.1,140.2 L798.3,140.1 L798.6,140.1 L798.8,140.0 L799.1,139.9 L799.3,139.9 L799.5,139.8 L799.8,139.7
		L800.0,139.7 L800.3,139.6 L800.5,139.5 L800.8,139.5 L801.0,139.4 L801.3,139.3 L801.5,139.3 L801.8,139.2
		L802.0,139.1 L802.2,139.0 L802.5,139.0 L802.7,138.9 L803.0,138.8 L803.2,138.8 L803.5,138.7 L803.7,138.6
		L804.0,138.6 L804.2,138.5 L804.4,138.4 L804.7,138.4 L804.9,138.3 L805.2,138.2 L805.4,138.2 L805.7,138.1
		L805.9,138.0 L806.2,138.0 L806.4,137.9 L806.7,137.8 L806.9,137.7 L807.1,137.7 L807.4,137.6 L807.6,137.5
		L807.9,137.5 L808.1,137.4 L808.4,137.3 L808.6,137.3 L808.9,137.2 L809.1,137.1 L809.4,137.1 L809.6,137.0
		L809.8,136.9 L810.1,136.9 L810.3,136.8 L810.6,136.7 L810.8,136.7 L811.1,136.6 L811.3,136.5 L811.6,136.5
		L811.8,136.4 L812.1,136.3 L812.3,136.3 L812.5,136.2 L812.8,136.1 L813.0,136.1 L813.3,136.0 L813.5,135.9
		L813.8,135.9 L814.0,135.8 L814.3,135.7 L814.5,135.7 L814.7,135.6 L815.0,135.5 L815.2,135.5 L815.5,135.4
		L815.7,135.3 L816.0,135.3 L816.2,135.2 L816.5,135.1 L816.7,135.1 L817.0,135.0 L817.2,134.9 L817.4,134.9
		L817.7,134.8 L817.9,134.7 L818.2,134.7 L818.4,134.6 L818.7,134.5 L818.9,134.5 L819.2,134.4 L819.4,134.3
		L819.7,134.3 L819.9,134.2 L820.1,134.1 L820.4,134.1 L820.6,134.0 L820.9,134.0 L821.1,133.9 L821.4,133.8
		L821.6,133.8 L821.9,133.7 L822.1,133.6 L822.4,133.6 L822.6,133.5 L822.8,133.4 L823.1,133.4 L823.3,133.3
		L823.6,133.2 L823.8,133.2 L824.1,133.1 L824.3,133.1 L824.6,133.0 L824.8,132.9 L825.0,132.9 L825.3,132.8
		L825.5,132.7 L825.8,132.7 L826.0,132.6 L826.3,132.6 L826.5,132.5 L826.8,132.4 L827.0,132.4 L827.3,132.3
		L827.5,132.2 L827.7,132.2 L828.0,132.1 L828.2,132.0 L828.5,132.0 L828.7,131.9 L829.0,131.9 L829.2,131.8
		L829.5,131.7 L829.7,131.7 L830.0,131.6 L830.2,131.5 L830.4,131.5 L830.7,131.4 L830.9,131.4 L831.2,131.3
		L831.4,131.2 L831.7,131.2 L831.9,131.1 L832.2,131.0 L832.4,131.0 L832.7,130.9 L832.9,130.8 L833.1,130.8
		L833.4,130.7 L833.6,130.6 L833.9,130.6 L834.1,130.5 L834.4,130.4 L834.6,130.4 L834.9,130.3 L835.1,130.2
		L835.3,130.2 L835.6,130.1 L835.8,130.0 L836.1,129.9 L836.3,129.9 L836.6,129.8 L836.8,129.7 L837.1,129.6
		L837.3,129.6 L837.6,129.5 L837.8,129.4 L838.0,129.3 L838.3,129.3 L838.5,129.2 L838.8,129.1 L839.0,129.0
		L839.3,129.0 L839.5,128.9 L839.8,128.8 L840.0,128.7 L840.3,128.7 L840.5,128.6 L840.7,128.5 L841.0,128.4
		L841.2,128.3 L841.5,128.3 L841.7,128.2 L842.0,128.1 L842.2,128.0 L842.5,128.0 L842.7,127.9 L843.0,127.8
		L843.2,127.7 L843.4,127.6 L843.7,127.6 L843.9,127.5 L844.2,127.4 L844.4,127.3 L844.7,127.2 L844.9,127.2
		L845.2,127.1 L845.4,127.0 L845.6,126.9 L845.9,126.9 L846.1,126.8 L846.4,126.7 L846.6,126.7 L846.9,126.6
		L847.1,126.5 L847.4,126.4 L847.6,126.4 L847.9,126.3 L848.1,126.2 L848.3,126.2 L848.6,126.1 L848.8,126.0
		L849.1,126.0 L849.3,125.9 L849.6,125.8 L849.8,125.8 L850.1,125.7 L850.3,125.6 L850.6,125.6 L850.8,125.5
		L851.0,125.4 L851.3,125.4 L851.5,125.3  '/></g>
	</g>
	<g id="gnuplot_plot_2a" ><title>Open Loop</title>
<g fill="none" color="black" stroke="currentColor" stroke-width="1.00" stroke-linecap="butt" stroke-linejoin="miter">
	<g transform="translate(637.9,481.2)" stroke="none" fill="black" font-family="Helvetica Neue Light" font-size="16.00"  text-anchor="end">
		<text><tspan font-family="Helvetica Neue Light" >Open Loop</tspan></text>
	</g>
</g>
<g fill="none" color="black" stroke="currentColor" stroke-width="1.00" stroke-linecap="butt" stroke-linejoin="miter">
	<path stroke='rgb(217,  64,  35)'  d='M649.1,476.0 L705.9,476.0 M108.0,399.2 L108.2,399.0 L108.5,398.8 L108.7,398.6 L109.0,398.3 L109.2,398.1
		L109.5,397.9 L109.7,397.7 L110.0,397.5 L110.2,397.3 L110.5,397.1 L110.7,396.9 L110.9,396.7 L111.2,396.5
		L111.4,396.3 L111.7,396.2 L111.9,396.0 L112.2,395.8 L112.4,395.6 L112.7,395.4 L112.9,395.2 L113.1,395.1
		L113.4,394.9 L113.6,394.7 L113.9,394.5 L114.1,394.4 L114.4,394.2 L114.6,394.0 L114.9,393.9 L115.1,393.7
		L115.4,393.6 L115.6,393.4 L115.8,393.2 L116.1,393.1 L116.3,392.9 L116.6,392.8 L116.8,392.6 L117.1,392.5
		L117.3,392.3 L117.6,392.2 L117.8,392.0 L118.1,391.9 L118.3,391.8 L118.5,391.6 L118.8,391.5 L119.0,391.3
		L119.3,391.2 L119.5,391.1 L119.8,390.9 L120.0,390.8 L120.3,390.7 L120.5,390.6 L120.8,390.4 L121.0,390.3
		L121.2,390.2 L121.5,390.1 L121.7,389.9 L122.0,389.8 L122.2,389.7 L122.5,389.6 L122.7,389.4 L123.0,389.3
		L123.2,389.2 L123.4,389.1 L123.7,389.0 L123.9,388.9 L124.2,388.7 L124.4,388.6 L124.7,388.5 L124.9,388.4
		L125.2,388.3 L125.4,388.2 L125.7,388.1 L125.9,387.9 L126.1,387.8 L126.4,387.7 L126.6,387.6 L126.9,387.5
		L127.1,387.4 L127.4,387.3 L127.6,387.2 L127.9,387.1 L128.1,387.0 L128.4,386.9 L128.6,386.8 L128.8,386.7
		L129.1,386.6 L129.3,386.5 L129.6,386.4 L129.8,386.3 L130.1,386.2 L130.3,386.0 L130.6,385.9 L130.8,385.8
		L131.1,385.7 L131.3,385.6 L131.5,385.5 L131.8,385.4 L132.0,385.3 L132.3,385.3 L132.5,385.2 L132.8,385.1
		L133.0,385.0 L133.3,384.9 L133.5,384.8 L133.7,384.7 L134.0,384.6 L134.2,384.5 L134.5,384.4 L134.7,384.3
		L135.0,384.2 L135.2,384.1 L135.5,384.0 L135.7,383.9 L136.0,383.8 L136.2,383.7 L136.4,383.6 L136.7,383.5
		L136.9,383.4 L137.2,383.3 L137.4,383.2 L137.7,383.1 L137.9,383.0 L138.2,382.9 L138.4,382.8 L138.7,382.7
		L138.9,382.6 L139.1,382.5 L139.4,382.4 L139.6,382.4 L139.9,382.3 L140.1,382.2 L140.4,382.1 L140.6,382.0
		L140.9,381.9 L141.1,381.8 L141.4,381.7 L141.6,381.6 L141.8,381.5 L142.1,381.4 L142.3,381.3 L142.6,381.2
		L142.8,381.1 L143.1,381.0 L143.3,380.9 L143.6,380.8 L143.8,380.7 L144.0,380.6 L144.3,380.5 L144.5,380.5
		L144.8,380.4 L145.0,380.3 L145.3,380.2 L145.5,380.1 L145.8,380.0 L146.0,379.9 L146.3,379.8 L146.5,379.7
		L146.7,379.6 L147.0,379.5 L147.2,379.4 L147.5,379.3 L147.7,379.2 L148.0,379.1 L148.2,379.0 L148.5,378.9
		L148.7,378.8 L149.0,378.8 L149.2,378.7 L149.4,378.6 L149.7,378.5 L149.9,378.4 L150.2,378.3 L150.4,378.2
		L150.7,378.1 L150.9,378.0 L151.2,377.9 L151.4,377.8 L151.7,377.7 L151.9,377.6 L152.1,377.5 L152.4,377.4
		L152.6,377.3 L152.9,377.2 L153.1,377.2 L153.4,377.1 L153.6,377.0 L153.9,376.9 L154.1,376.8 L154.3,376.7
		L154.6,376.6 L154.8,376.5 L155.1,376.4 L155.3,376.3 L155.6,376.2 L155.8,376.1 L156.1,376.0 L156.3,375.9
		L156.6,375.8 L156.8,375.7 L157.0,375.6 L157.3,375.6 L157.5,375.5 L157.8,375.4 L158.0,375.3 L158.3,375.2
		L158.5,375.1 L158.8,375.0 L159.0,374.9 L159.3,374.8 L159.5,374.7 L159.7,374.6 L160.0,374.5 L160.2,374.5
		L160.5,374.4 L160.7,374.3 L161.0,374.2 L161.2,374.1 L161.5,374.0 L161.7,373.9 L162.0,373.8 L162.2,373.7
		L162.4,373.6 L162.7,373.6 L162.9,373.5 L163.2,373.4 L163.4,373.3 L163.7,373.2 L163.9,373.1 L164.2,373.0
		L164.4,372.9 L164.6,372.9 L164.9,372.8 L165.1,372.7 L165.4,372.6 L165.6,372.5 L165.9,372.4 L166.1,372.3
		L166.4,372.3 L166.6,372.2 L166.9,372.1 L167.1,372.0 L167.3,371.9 L167.6,371.8 L167.8,371.7 L168.1,371.6
		L168.3,371.6 L168.6,371.5 L168.8,371.4 L169.1,371.3 L169.3,371.2 L169.6,371.1 L169.8,371.1 L170.0,371.0
		L170.3,370.9 L170.5,370.8 L170.8,370.7 L171.0,370.6 L171.3,370.5 L171.5,370.4 L171.8,370.4 L172.0,370.3
		L172.2,370.2 L172.5,370.1 L172.7,370.0 L173.0,369.9 L173.2,369.8 L173.5,369.7 L173.7,369.6 L174.0,369.6
		L174.2,369.5 L174.5,369.4 L174.7,369.3 L174.9,369.2 L175.2,369.1 L175.4,369.0 L175.7,368.9 L175.9,368.8
		L176.2,368.7 L176.4,368.7 L176.7,368.6 L176.9,368.5 L177.2,368.4 L177.4,368.3 L177.6,368.2 L177.9,368.1
		L178.1,368.0 L178.4,367.9 L178.6,367.8 L178.9,367.7 L179.1,367.7 L179.4,367.6 L179.6,367.5 L179.9,367.4
		L180.1,367.3 L180.3,367.2 L180.6,367.1 L180.8,367.0 L181.1,366.9 L181.3,366.8 L181.6,366.7 L181.8,366.6
		L182.1,366.6 L182.3,366.5 L182.5,366.4 L182.8,366.3 L183.0,366.2 L183.3,366.1 L183.5,366.0 L183.8,365.9
		L184.0,365.8 L184.3,365.7 L184.5,365.6 L184.8,365.6 L185.0,365.5 L185.2,365.4 L185.5,365.3 L185.7,365.2
		L186.0,365.1 L186.2,365.0 L186.5,364.9 L186.7,364.8 L187.0,364.7 L187.2,364.6 L187.5,364.6 L187.7,364.5
		L187.9,364.4 L188.2,364.3 L188.4,364.2 L188.7,364.1 L188.9,364.0 L189.2,363.9 L189.4,363.8 L189.7,363.7
		L189.9,363.7 L190.2,363.6 L190.4,363.5 L190.6,363.4 L190.9,363.3 L191.1,363.2 L191.4,363.1 L191.6,363.0
		L191.9,362.9 L192.1,362.9 L192.4,362.8 L192.6,362.7 L192.8,362.6 L193.1,362.5 L193.3,362.4 L193.6,362.3
		L193.8,362.2 L194.1,362.1 L194.3,362.0 L194.6,362.0 L194.8,361.9 L195.1,361.8 L195.3,361.7 L195.5,361.6
		L195.8,361.5 L196.0,361.4 L196.3,361.3 L196.5,361.2 L196.8,361.1 L197.0,361.0 L197.3,361.0 L197.5,360.9
		L197.8,360.8 L198.0,360.7 L198.2,360.6 L198.5,360.5 L198.7,360.4 L199.0,360.3 L199.2,360.2 L199.5,360.1
		L199.7,360.0 L200.0,359.9 L200.2,359.8 L200.5,359.7 L200.7,359.6 L200.9,359.5 L201.2,359.4 L201.4,359.4
		L201.7,359.3 L201.9,359.2 L202.2,359.1 L202.4,359.0 L202.7,358.9 L202.9,358.8 L203.1,358.7 L203.4,358.6
		L203.6,358.5 L203.9,358.4 L204.1,358.3 L204.4,358.2 L204.6,358.1 L204.9,358.0 L205.1,357.9 L205.4,357.8
		L205.6,357.7 L205.8,357.6 L206.1,357.5 L206.3,357.4 L206.6,357.3 L206.8,357.2 L207.1,357.1 L207.3,357.0
		L207.6,356.9 L207.8,356.8 L208.1,356.7 L208.3,356.6 L208.5,356.6 L208.8,356.5 L209.0,356.4 L209.3,356.3
		L209.5,356.2 L209.8,356.1 L210.0,356.0 L210.3,355.9 L210.5,355.8 L210.8,355.7 L211.0,355.6 L211.2,355.5
		L211.5,355.4 L211.7,355.3 L212.0,355.2 L212.2,355.1 L212.5,355.0 L212.7,354.9 L213.0,354.8 L213.2,354.7
		L213.4,354.6 L213.7,354.5 L213.9,354.5 L214.2,354.4 L214.4,354.3 L214.7,354.2 L214.9,354.1 L215.2,354.0
		L215.4,353.9 L215.7,353.8 L215.9,353.7 L216.1,353.6 L216.4,353.5 L216.6,353.4 L216.9,353.3 L217.1,353.2
		L217.4,353.1 L217.6,353.0 L217.9,352.9 L218.1,352.8 L218.4,352.7 L218.6,352.7 L218.8,352.6 L219.1,352.5
		L219.3,352.4 L219.6,352.3 L219.8,352.2 L220.1,352.1 L220.3,352.0 L220.6,351.9 L220.8,351.8 L221.1,351.7
		L221.3,351.6 L221.5,351.5 L221.8,351.4 L222.0,351.3 L222.3,351.2 L222.5,351.1 L222.8,351.0 L223.0,351.0
		L223.3,350.9 L223.5,350.8 L223.7,350.7 L224.0,350.6 L224.2,350.5 L224.5,350.4 L224.7,350.3 L225.0,350.2
		L225.2,350.1 L225.5,350.0 L225.7,349.9 L226.0,349.8 L226.2,349.7 L226.4,349.6 L226.7,349.5 L226.9,349.4
		L227.2,349.4 L227.4,349.3 L227.7,349.2 L227.9,349.1 L228.2,349.0 L228.4,348.9 L228.7,348.8 L228.9,348.7
		L229.1,348.6 L229.4,348.5 L229.6,348.4 L229.9,348.3 L230.1,348.2 L230.4,348.1 L230.6,348.0 L230.9,347.9
		L231.1,347.9 L231.3,347.8 L231.6,347.7 L231.8,347.6 L232.1,347.5 L232.3,347.4 L232.6,347.3 L232.8,347.2
		L233.1,347.1 L233.3,347.0 L233.6,346.9 L233.8,346.8 L234.0,346.7 L234.3,346.6 L234.5,346.6 L234.8,346.5
		L235.0,346.4 L235.3,346.3 L235.5,346.2 L235.8,346.1 L236.0,346.0 L236.3,345.9 L236.5,345.8 L236.7,345.7
		L237.0,345.6 L237.2,345.6 L237.5,345.5 L237.7,345.4 L238.0,345.3 L238.2,345.2 L238.5,345.1 L238.7,345.0
		L239.0,344.9 L239.2,344.8 L239.4,344.7 L239.7,344.7 L239.9,344.6 L240.2,344.5 L240.4,344.4 L240.7,344.3
		L240.9,344.2 L241.2,344.1 L241.4,344.0 L241.6,343.9 L241.9,343.8 L242.1,343.8 L242.4,343.7 L242.6,343.6
		L242.9,343.5 L243.1,343.4 L243.4,343.3 L243.6,343.2 L243.9,343.1 L244.1,343.0 L244.3,343.0 L244.6,342.9
		L244.8,342.8 L245.1,342.7 L245.3,342.6 L245.6,342.5 L245.8,342.4 L246.1,342.3 L246.3,342.2 L246.6,342.2
		L246.8,342.1 L247.0,342.0 L247.3,341.9 L247.5,341.8 L247.8,341.7 L248.0,341.6 L248.3,341.6 L248.5,341.5
		L248.8,341.4 L249.0,341.3 L249.3,341.2 L249.5,341.1 L249.7,341.0 L250.0,341.0 L250.2,340.9 L250.5,340.8
		L250.7,340.7 L251.0,340.6 L251.2,340.5 L251.5,340.4 L251.7,340.4 L251.9,340.3 L252.2,340.2 L252.4,340.1
		L252.7,340.0 L252.9,339.9 L253.2,339.8 L253.4,339.8 L253.7,339.7 L253.9,339.6 L254.2,339.5 L254.4,339.4
		L254.6,339.3 L254.9,339.2 L255.1,339.2 L255.4,339.1 L255.6,339.0 L255.9,338.9 L256.1,338.8 L256.4,338.7
		L256.6,338.7 L256.9,338.6 L257.1,338.5 L257.3,338.4 L257.6,338.3 L257.8,338.2 L258.1,338.2 L258.3,338.1
		L258.6,338.0 L258.8,337.9 L259.1,337.8 L259.3,337.7 L259.6,337.6 L259.8,337.6 L260.0,337.5 L260.3,337.4
		L260.5,337.3 L260.8,337.2 L261.0,337.1 L261.3,337.1 L261.5,337.0 L261.8,336.9 L262.0,336.8 L262.2,336.7
		L262.5,336.6 L262.7,336.6 L263.0,336.5 L263.2,336.4 L263.5,336.3 L263.7,336.2 L264.0,336.1 L264.2,336.0
		L264.5,336.0 L264.7,335.9 L264.9,335.8 L265.2,335.7 L265.4,335.6 L265.7,335.5 L265.9,335.5 L266.2,335.4
		L266.4,335.3 L266.7,335.2 L266.9,335.1 L267.2,335.0 L267.4,335.0 L267.6,334.9 L267.9,334.8 L268.1,334.7
		L268.4,334.6 L268.6,334.5 L268.9,334.4 L269.1,334.4 L269.4,334.3 L269.6,334.2 L269.9,334.1 L270.1,334.0
		L270.3,333.9 L270.6,333.8 L270.8,333.8 L271.1,333.7 L271.3,333.6 L271.6,333.5 L271.8,333.4 L272.1,333.3
		L272.3,333.2 L272.5,333.1 L272.8,333.0 L273.0,333.0 L273.3,332.9 L273.5,332.8 L273.8,332.7 L274.0,332.6
		L274.3,332.5 L274.5,332.4 L274.8,332.3 L275.0,332.2 L275.2,332.1 L275.5,332.1 L275.7,332.0 L276.0,331.9
		L276.2,331.8 L276.5,331.7 L276.7,331.6 L277.0,331.5 L277.2,331.4 L277.5,331.3 L277.7,331.2 L277.9,331.1
		L278.2,331.1 L278.4,331.0 L278.7,330.9 L278.9,330.8 L279.2,330.7 L279.4,330.6 L279.7,330.5 L279.9,330.4
		L280.2,330.3 L280.4,330.2 L280.6,330.1 L280.9,330.0 L281.1,330.0 L281.4,329.9 L281.6,329.8 L281.9,329.7
		L282.1,329.6 L282.4,329.5 L282.6,329.4 L282.8,329.3 L283.1,329.2 L283.3,329.2 L283.6,329.1 L283.8,329.0
		L284.1,328.9 L284.3,328.8 L284.6,328.7 L284.8,328.6 L285.1,328.5 L285.3,328.4 L285.5,328.4 L285.8,328.3
		L286.0,328.2 L286.3,328.1 L286.5,328.0 L286.8,327.9 L287.0,327.8 L287.3,327.8 L287.5,327.7 L287.8,327.6
		L288.0,327.5 L288.2,327.4 L288.5,327.3 L288.7,327.2 L289.0,327.2 L289.2,327.1 L289.5,327.0 L289.7,326.9
		L290.0,326.8 L290.2,326.7 L290.5,326.6 L290.7,326.6 L290.9,326.5 L291.2,326.4 L291.4,326.3 L291.7,326.2
		L291.9,326.1 L292.2,326.0 L292.4,326.0 L292.7,325.9 L292.9,325.8 L293.1,325.7 L293.4,325.6 L293.6,325.5
		L293.9,325.5 L294.1,325.4 L294.4,325.3 L294.6,325.2 L294.9,325.1 L295.1,325.0 L295.4,325.0 L295.6,324.9
		L295.8,324.8 L296.1,324.7 L296.3,324.6 L296.6,324.6 L296.8,324.5 L297.1,324.4 L297.3,324.3 L297.6,324.2
		L297.8,324.2 L298.1,324.1 L298.3,324.0 L298.5,323.9 L298.8,323.9 L299.0,323.8 L299.3,323.7 L299.5,323.6
		L299.8,323.5 L300.0,323.5 L300.3,323.4 L300.5,323.3 L300.7,323.2 L301.0,323.1 L301.2,323.1 L301.5,323.0
		L301.7,322.9 L302.0,322.8 L302.2,322.8 L302.5,322.7 L302.7,322.6 L303.0,322.5 L303.2,322.5 L303.4,322.4
		L303.7,322.3 L303.9,322.2 L304.2,322.1 L304.4,322.1 L304.7,322.0 L304.9,321.9 L305.2,321.8 L305.4,321.8
		L305.7,321.7 L305.9,321.6 L306.1,321.5 L306.4,321.4 L306.6,321.4 L306.9,321.3 L307.1,321.2 L307.4,321.1
		L307.6,321.0 L307.9,320.9 L308.1,320.9 L308.4,320.8 L308.6,320.7 L308.8,320.6 L309.1,320.5 L309.3,320.4
		L309.6,320.3 L309.8,320.3 L310.1,320.2 L310.3,320.1 L310.6,320.0 L310.8,319.9 L311.0,319.8 L311.3,319.7
		L311.5,319.6 L311.8,319.6 L312.0,319.5 L312.3,319.4 L312.5,319.3 L312.8,319.2 L313.0,319.1 L313.3,319.0
		L313.5,318.9 L313.7,318.8 L314.0,318.8 L314.2,318.7 L314.5,318.6 L314.7,318.5 L315.0,318.4 L315.2,318.3
		L315.5,318.2 L315.7,318.1 L316.0,318.0 L316.2,317.9 L316.4,317.9 L316.7,317.8 L316.9,317.7 L317.2,317.6
		L317.4,317.5 L317.7,317.4 L317.9,317.3 L318.2,317.2 L318.4,317.1 L318.7,317.1 L318.9,317.0 L319.1,316.9
		L319.4,316.8 L319.6,316.7 L319.9,316.6 L320.1,316.5 L320.4,316.4 L320.6,316.4 L320.9,316.3 L321.1,316.2
		L321.3,316.1 L321.6,316.0 L321.8,315.9 L322.1,315.9 L322.3,315.8 L322.6,315.7 L322.8,315.6 L323.1,315.5
		L323.3,315.4 L323.6,315.4 L323.8,315.3 L324.0,315.2 L324.3,315.1 L324.5,315.0 L324.8,314.9 L325.0,314.9
		L325.3,314.8 L325.5,314.7 L325.8,314.6 L326.0,314.5 L326.3,314.4 L326.5,314.4 L326.7,314.3 L327.0,314.2
		L327.2,314.1 L327.5,314.0 L327.7,314.0 L328.0,313.9 L328.2,313.8 L328.5,313.7 L328.7,313.6 L329.0,313.6
		L329.2,313.5 L329.4,313.4 L329.7,313.3 L329.9,313.2 L330.2,313.1 L330.4,313.1 L330.7,313.0 L330.9,312.9
		L331.2,312.8 L331.4,312.7 L331.6,312.6 L331.9,312.5 L332.1,312.4 L332.4,312.4 L332.6,312.3 L332.9,312.2
		L333.1,312.1 L333.4,312.0 L333.6,311.9 L333.9,311.8 L334.1,311.7 L334.3,311.6 L334.6,311.6 L334.8,311.5
		L335.1,311.4 L335.3,311.3 L335.6,311.2 L335.8,311.1 L336.1,311.0 L336.3,310.9 L336.6,310.8 L336.8,310.7
		L337.0,310.6 L337.3,310.5 L337.5,310.4 L337.8,310.4 L338.0,310.3 L338.3,310.2 L338.5,310.1 L338.8,310.0
		L339.0,309.9 L339.3,309.8 L339.5,309.7 L339.7,309.6 L340.0,309.5 L340.2,309.4 L340.5,309.3 L340.7,309.2
		L341.0,309.1 L341.2,309.0 L341.5,308.9 L341.7,308.8 L341.9,308.7 L342.2,308.6 L342.4,308.6 L342.7,308.5
		L342.9,308.4 L343.2,308.3 L343.4,308.2 L343.7,308.1 L343.9,308.0 L344.2,307.9 L344.4,307.8 L344.6,307.7
		L344.9,307.6 L345.1,307.5 L345.4,307.5 L345.6,307.4 L345.9,307.3 L346.1,307.2 L346.4,307.1 L346.6,307.0
		L346.9,306.9 L347.1,306.8 L347.3,306.7 L347.6,306.6 L347.8,306.6 L348.1,306.5 L348.3,306.4 L348.6,306.3
		L348.8,306.2 L349.1,306.1 L349.3,306.0 L349.6,305.9 L349.8,305.9 L350.0,305.8 L350.3,305.7 L350.5,305.6
		L350.8,305.5 L351.0,305.4 L351.3,305.3 L351.5,305.3 L351.8,305.2 L352.0,305.1 L352.2,305.0 L352.5,304.9
		L352.7,304.8 L353.0,304.7 L353.2,304.7 L353.5,304.6 L353.7,304.5 L354.0,304.4 L354.2,304.3 L354.5,304.2
		L354.7,304.1 L354.9,304.0 L355.2,304.0 L355.4,303.9 L355.7,303.8 L355.9,303.7 L356.2,303.6 L356.4,303.5
		L356.7,303.4 L356.9,303.3 L357.2,303.2 L357.4,303.1 L357.6,303.1 L357.9,303.0 L358.1,302.9 L358.4,302.8
		L358.6,302.7 L358.9,302.6 L359.1,302.5 L359.4,302.4 L359.6,302.3 L359.8,302.2 L360.1,302.1 L360.3,302.0
		L360.6,301.9 L360.8,301.8 L361.1,301.7 L361.3,301.7 L361.6,301.6 L361.8,301.5 L362.1,301.4 L362.3,301.3
		L362.5,301.2 L362.8,301.1 L363.0,301.0 L363.3,300.9 L363.5,300.8 L363.8,300.7 L364.0,300.6 L364.3,300.5
		L364.5,300.4 L364.8,300.3 L365.0,300.2 L365.2,300.1 L365.5,300.0 L365.7,299.9 L366.0,299.8 L366.2,299.7
		L366.5,299.6 L366.7,299.6 L367.0,299.5 L367.2,299.4 L367.5,299.3 L367.7,299.2 L367.9,299.1 L368.2,299.0
		L368.4,298.9 L368.7,298.8 L368.9,298.7 L369.2,298.6 L369.4,298.5 L369.7,298.4 L369.9,298.3 L370.1,298.3
		L370.4,298.2 L370.6,298.1 L370.9,298.0 L371.1,297.9 L371.4,297.8 L371.6,297.7 L371.9,297.6 L372.1,297.5
		L372.4,297.5 L372.6,297.4 L372.8,297.3 L373.1,297.2 L373.3,297.1 L373.6,297.0 L373.8,296.9 L374.1,296.8
		L374.3,296.8 L374.6,296.7 L374.8,296.6 L375.1,296.5 L375.3,296.4 L375.5,296.3 L375.8,296.2 L376.0,296.1
		L376.3,296.1 L376.5,296.0 L376.8,295.9 L377.0,295.8 L377.3,295.7 L377.5,295.6 L377.8,295.5 L378.0,295.5
		L378.2,295.4 L378.5,295.3 L378.7,295.2 L379.0,295.1 L379.2,295.0 L379.5,294.9 L379.7,294.9 L380.0,294.8
		L380.2,294.7 L380.4,294.6 L380.7,294.5 L380.9,294.5 L381.2,294.4 L381.4,294.3 L381.7,294.2 L381.9,294.1
		L382.2,294.0 L382.4,294.0 L382.7,293.9 L382.9,293.8 L383.1,293.7 L383.4,293.6 L383.6,293.6 L383.9,293.5
		L384.1,293.4 L384.4,293.3 L384.6,293.3 L384.9,293.2 L385.1,293.1 L385.4,293.0 L385.6,292.9 L385.8,292.9
		L386.1,292.8 L386.3,292.7 L386.6,292.6 L386.8,292.5 L387.1,292.5 L387.3,292.4 L387.6,292.3 L387.8,292.2
		L388.1,292.2 L388.3,292.1 L388.5,292.0 L388.8,291.9 L389.0,291.9 L389.3,291.8 L389.5,291.7 L389.8,291.6
		L390.0,291.5 L390.3,291.5 L390.5,291.4 L390.7,291.3 L391.0,291.2 L391.2,291.2 L391.5,291.1 L391.7,291.0
		L392.0,290.9 L392.2,290.8 L392.5,290.7 L392.7,290.7 L393.0,290.6 L393.2,290.5 L393.4,290.4 L393.7,290.3
		L393.9,290.2 L394.2,290.1 L394.4,290.1 L394.7,290.0 L394.9,289.9 L395.2,289.8 L395.4,289.7 L395.7,289.6
		L395.9,289.5 L396.1,289.4 L396.4,289.4 L396.6,289.3 L396.9,289.2 L397.1,289.1 L397.4,289.0 L397.6,288.9
		L397.9,288.8 L398.1,288.7 L398.4,288.6 L398.6,288.5 L398.8,288.4 L399.1,288.3 L399.3,288.3 L399.6,288.2
		L399.8,288.1 L400.1,288.0 L400.3,287.9 L400.6,287.8 L400.8,287.7 L401.0,287.6 L401.3,287.5 L401.5,287.4
		L401.8,287.3 L402.0,287.2 L402.3,287.1 L402.5,287.0 L402.8,286.9 L403.0,286.8 L403.3,286.7 L403.5,286.6
		L403.7,286.6 L404.0,286.5 L404.2,286.4 L404.5,286.3 L404.7,286.2 L405.0,286.1 L405.2,286.0 L405.5,285.9
		L405.7,285.8 L406.0,285.7 L406.2,285.6 L406.4,285.5 L406.7,285.4 L406.9,285.3 L407.2,285.2 L407.4,285.1
		L407.7,285.0 L407.9,284.9 L408.2,284.8 L408.4,284.7 L408.7,284.6 L408.9,284.5 L409.1,284.4 L409.4,284.3
		L409.6,284.2 L409.9,284.1 L410.1,284.0 L410.4,283.9 L410.6,283.8 L410.9,283.7 L411.1,283.6 L411.3,283.5
		L411.6,283.5 L411.8,283.4 L412.1,283.3 L412.3,283.2 L412.6,283.1 L412.8,283.0 L413.1,282.9 L413.3,282.8
		L413.6,282.7 L413.8,282.6 L414.0,282.5 L414.3,282.4 L414.5,282.3 L414.8,282.2 L415.0,282.1 L415.3,282.0
		L415.5,281.9 L415.8,281.8 L416.0,281.7 L416.3,281.6 L416.5,281.5 L416.7,281.4 L417.0,281.3 L417.2,281.2
		L417.5,281.1 L417.7,281.0 L418.0,280.9 L418.2,280.8 L418.5,280.7 L418.7,280.6 L418.9,280.5 L419.2,280.4
		L419.4,280.3 L419.7,280.2 L419.9,280.1 L420.2,280.0 L420.4,279.9 L420.7,279.8 L420.9,279.7 L421.2,279.6
		L421.4,279.5 L421.6,279.4 L421.9,279.3 L422.1,279.2 L422.4,279.1 L422.6,279.0 L422.9,278.9 L423.1,278.8
		L423.4,278.7 L423.6,278.6 L423.9,278.5 L424.1,278.4 L424.3,278.3 L424.6,278.2 L424.8,278.1 L425.1,278.0
		L425.3,277.9 L425.6,277.8 L425.8,277.7 L426.1,277.6 L426.3,277.5 L426.6,277.4 L426.8,277.3 L427.0,277.2
		L427.3,277.1 L427.5,277.0 L427.8,276.9 L428.0,276.8 L428.3,276.7 L428.5,276.6 L428.8,276.6 L429.0,276.5
		L429.2,276.4 L429.5,276.3 L429.7,276.2 L430.0,276.1 L430.2,276.0 L430.5,275.9 L430.7,275.8 L431.0,275.7
		L431.2,275.6 L431.5,275.6 L431.7,275.5 L431.9,275.4 L432.2,275.3 L432.4,275.2 L432.7,275.1 L432.9,275.0
		L433.2,275.0 L433.4,274.9 L433.7,274.8 L433.9,274.7 L434.2,274.6 L434.4,274.5 L434.6,274.5 L434.9,274.4
		L435.1,274.3 L435.4,274.2 L435.6,274.1 L435.9,274.1 L436.1,274.0 L436.4,273.9 L436.6,273.8 L436.9,273.7
		L437.1,273.7 L437.3,273.6 L437.6,273.5 L437.8,273.4 L438.1,273.3 L438.3,273.3 L438.6,273.2 L438.8,273.1
		L439.1,273.0 L439.3,272.9 L439.5,272.9 L439.8,272.8 L440.0,272.7 L440.3,272.6 L440.5,272.5 L440.8,272.5
		L441.0,272.4 L441.3,272.3 L441.5,272.2 L441.8,272.1 L442.0,272.1 L442.2,272.0 L442.5,271.9 L442.7,271.8
		L443.0,271.7 L443.2,271.6 L443.5,271.6 L443.7,271.5 L444.0,271.4 L444.2,271.3 L444.5,271.2 L444.7,271.1
		L444.9,271.1 L445.2,271.0 L445.4,270.9 L445.7,270.8 L445.9,270.7 L446.2,270.6 L446.4,270.5 L446.7,270.5
		L446.9,270.4 L447.2,270.3 L447.4,270.2 L447.6,270.1 L447.9,270.0 L448.1,269.9 L448.4,269.9 L448.6,269.8
		L448.9,269.7 L449.1,269.6 L449.4,269.5 L449.6,269.4 L449.8,269.3 L450.1,269.3 L450.3,269.2 L450.6,269.1
		L450.8,269.0 L451.1,268.9 L451.3,268.8 L451.6,268.7 L451.8,268.6 L452.1,268.6 L452.3,268.5 L452.5,268.4
		L452.8,268.3 L453.0,268.2 L453.3,268.1 L453.5,268.0 L453.8,268.0 L454.0,267.9 L454.3,267.8 L454.5,267.7
		L454.8,267.6 L455.0,267.5 L455.2,267.4 L455.5,267.4 L455.7,267.3 L456.0,267.2 L456.2,267.1 L456.5,267.0
		L456.7,266.9 L457.0,266.8 L457.2,266.8 L457.5,266.7 L457.7,266.6 L457.9,266.5 L458.2,266.4 L458.4,266.3
		L458.7,266.2 L458.9,266.2 L459.2,266.1 L459.4,266.0 L459.7,265.9 L459.9,265.8 L460.1,265.7 L460.4,265.7
		L460.6,265.6 L460.9,265.5 L461.1,265.4 L461.4,265.3 L461.6,265.2 L461.9,265.1 L462.1,265.1 L462.4,265.0
		L462.6,264.9 L462.8,264.8 L463.1,264.7 L463.3,264.6 L463.6,264.6 L463.8,264.5 L464.1,264.4 L464.3,264.3
		L464.6,264.2 L464.8,264.1 L465.1,264.0 L465.3,264.0 L465.5,263.9 L465.8,263.8 L466.0,263.7 L466.3,263.6
		L466.5,263.5 L466.8,263.4 L467.0,263.3 L467.3,263.2 L467.5,263.2 L467.8,263.1 L468.0,263.0 L468.2,262.9
		L468.5,262.8 L468.7,262.7 L469.0,262.6 L469.2,262.5 L469.5,262.4 L469.7,262.3 L470.0,262.2 L470.2,262.1
		L470.4,262.1 L470.7,262.0 L470.9,261.9 L471.2,261.8 L471.4,261.7 L471.7,261.6 L471.9,261.5 L472.2,261.4
		L472.4,261.3 L472.7,261.2 L472.9,261.1 L473.1,261.0 L473.4,260.9 L473.6,260.8 L473.9,260.7 L474.1,260.6
		L474.4,260.5 L474.6,260.4 L474.9,260.3 L475.1,260.3 L475.4,260.2 L475.6,260.1 L475.8,260.0 L476.1,259.9
		L476.3,259.8 L476.6,259.7 L476.8,259.6 L477.1,259.5 L477.3,259.4 L477.6,259.3 L477.8,259.2 L478.0,259.1
		L478.3,259.0 L478.5,258.9 L478.8,258.8 L479.0,258.7 L479.3,258.7 L479.5,258.6 L479.8,258.5 L480.0,258.4
		L480.3,258.3 L480.5,258.2 L480.7,258.1 L481.0,258.0 L481.2,257.9 L481.5,257.8 L481.7,257.7 L482.0,257.7
		L482.2,257.6 L482.5,257.5 L482.7,257.4 L483.0,257.3 L483.2,257.2 L483.4,257.1 L483.7,257.0 L483.9,257.0
		L484.2,256.9 L484.4,256.8 L484.7,256.7 L484.9,256.6 L485.2,256.5 L485.4,256.4 L485.7,256.3 L485.9,256.3
		L486.1,256.2 L486.4,256.1 L486.6,256.0 L486.9,255.9 L487.1,255.8 L487.4,255.7 L487.6,255.7 L487.9,255.6
		L488.1,255.5 L488.3,255.4 L488.6,255.3 L488.8,255.2 L489.1,255.1 L489.3,255.0 L489.6,255.0 L489.8,254.9
		L490.1,254.8 L490.3,254.7 L490.6,254.6 L490.8,254.5 L491.0,254.4 L491.3,254.3 L491.5,254.2 L491.8,254.2
		L492.0,254.1 L492.3,254.0 L492.5,253.9 L492.8,253.8 L493.0,253.7 L493.3,253.6 L493.5,253.5 L493.7,253.4
		L494.0,253.3 L494.2,253.2 L494.5,253.1 L494.7,253.0 L495.0,253.0 L495.2,252.9 L495.5,252.8 L495.7,252.7
		L496.0,252.6 L496.2,252.5 L496.4,252.4 L496.7,252.3 L496.9,252.2 L497.2,252.1 L497.4,252.0 L497.7,251.9
		L497.9,251.8 L498.2,251.7 L498.4,251.6 L498.6,251.5 L498.9,251.4 L499.1,251.3 L499.4,251.2 L499.6,251.1
		L499.9,251.1 L500.1,251.0 L500.4,250.9 L500.6,250.8 L500.9,250.7 L501.1,250.6 L501.3,250.5 L501.6,250.4
		L501.8,250.3 L502.1,250.2 L502.3,250.1 L502.6,250.0 L502.8,249.9 L503.1,249.8 L503.3,249.7 L503.6,249.6
		L503.8,249.5 L504.0,249.4 L504.3,249.3 L504.5,249.2 L504.8,249.1 L505.0,249.0 L505.3,248.9 L505.5,248.8
		L505.8,248.7 L506.0,248.6 L506.3,248.5 L506.5,248.4 L506.7,248.3 L507.0,248.2 L507.2,248.1 L507.5,248.0
		L507.7,247.9 L508.0,247.8 L508.2,247.7 L508.5,247.6 L508.7,247.5 L508.9,247.4 L509.2,247.3 L509.4,247.2
		L509.7,247.1 L509.9,247.0 L510.2,246.9 L510.4,246.9 L510.7,246.8 L510.9,246.7 L511.2,246.6 L511.4,246.5
		L511.6,246.4 L511.9,246.3 L512.1,246.2 L512.4,246.1 L512.6,246.0 L512.9,245.9 L513.1,245.8 L513.4,245.7
		L513.6,245.6 L513.9,245.5 L514.1,245.4 L514.3,245.3 L514.6,245.2 L514.8,245.1 L515.1,245.0 L515.3,244.9
		L515.6,244.8 L515.8,244.7 L516.1,244.6 L516.3,244.5 L516.6,244.4 L516.8,244.3 L517.0,244.2 L517.3,244.1
		L517.5,244.0 L517.8,243.9 L518.0,243.8 L518.3,243.7 L518.5,243.6 L518.8,243.5 L519.0,243.4 L519.2,243.3
		L519.5,243.2 L519.7,243.1 L520.0,243.0 L520.2,243.0 L520.5,242.9 L520.7,242.8 L521.0,242.7 L521.2,242.6
		L521.5,242.5 L521.7,242.4 L521.9,242.3 L522.2,242.2 L522.4,242.1 L522.7,242.0 L522.9,241.9 L523.2,241.8
		L523.4,241.7 L523.7,241.6 L523.9,241.5 L524.2,241.4 L524.4,241.3 L524.6,241.2 L524.9,241.1 L525.1,241.0
		L525.4,241.0 L525.6,240.9 L525.9,240.8 L526.1,240.7 L526.4,240.6 L526.6,240.5 L526.9,240.4 L527.1,240.3
		L527.3,240.2 L527.6,240.1 L527.8,240.0 L528.1,240.0 L528.3,239.9 L528.6,239.8 L528.8,239.7 L529.1,239.6
		L529.3,239.5 L529.5,239.4 L529.8,239.4 L530.0,239.3 L530.3,239.2 L530.5,239.1 L530.8,239.0 L531.0,238.9
		L531.3,238.9 L531.5,238.8 L531.8,238.7 L532.0,238.6 L532.2,238.5 L532.5,238.5 L532.7,238.4 L533.0,238.3
		L533.2,238.2 L533.5,238.1 L533.7,238.1 L534.0,238.0 L534.2,237.9 L534.5,237.8 L534.7,237.7 L534.9,237.7
		L535.2,237.6 L535.4,237.5 L535.7,237.4 L535.9,237.3 L536.2,237.3 L536.4,237.2 L536.7,237.1 L536.9,237.0
		L537.2,236.9 L537.4,236.9 L537.6,236.8 L537.9,236.7 L538.1,236.6 L538.4,236.6 L538.6,236.5 L538.9,236.4
		L539.1,236.3 L539.4,236.2 L539.6,236.1 L539.8,236.1 L540.1,236.0 L540.3,235.9 L540.6,235.8 L540.8,235.7
		L541.1,235.6 L541.3,235.6 L541.6,235.5 L541.8,235.4 L542.1,235.3 L542.3,235.2 L542.5,235.1 L542.8,235.0
		L543.0,235.0 L543.3,234.9 L543.5,234.8 L543.8,234.7 L544.0,234.6 L544.3,234.5 L544.5,234.4 L544.8,234.3
		L545.0,234.2 L545.2,234.2 L545.5,234.1 L545.7,234.0 L546.0,233.9 L546.2,233.8 L546.5,233.7 L546.7,233.6
		L547.0,233.5 L547.2,233.4 L547.4,233.4 L547.7,233.3 L547.9,233.2 L548.2,233.1 L548.4,233.0 L548.7,232.9
		L548.9,232.8 L549.2,232.7 L549.4,232.6 L549.7,232.5 L549.9,232.5 L550.1,232.4 L550.4,232.3 L550.6,232.2
		L550.9,232.1 L551.1,232.0 L551.4,231.9 L551.6,231.8 L551.9,231.7 L552.1,231.7 L552.4,231.6 L552.6,231.5
		L552.8,231.4 L553.1,231.3 L553.3,231.2 L553.6,231.2 L553.8,231.1 L554.1,231.0 L554.3,230.9 L554.6,230.8
		L554.8,230.7 L555.1,230.7 L555.3,230.6 L555.5,230.5 L555.8,230.4 L556.0,230.3 L556.3,230.3 L556.5,230.2
		L556.8,230.1 L557.0,230.0 L557.3,229.9 L557.5,229.9 L557.7,229.8 L558.0,229.7 L558.2,229.6 L558.5,229.5
		L558.7,229.5 L559.0,229.4 L559.2,229.3 L559.5,229.2 L559.7,229.1 L560.0,229.1 L560.2,229.0 L560.4,228.9
		L560.7,228.8 L560.9,228.8 L561.2,228.7 L561.4,228.6 L561.7,228.5 L561.9,228.4 L562.2,228.4 L562.4,228.3
		L562.7,228.2 L562.9,228.1 L563.1,228.1 L563.4,228.0 L563.6,227.9 L563.9,227.8 L564.1,227.7 L564.4,227.6
		L564.6,227.6 L564.9,227.5 L565.1,227.4 L565.4,227.3 L565.6,227.2 L565.8,227.1 L566.1,227.1 L566.3,227.0
		L566.6,226.9 L566.8,226.8 L567.1,226.7 L567.3,226.6 L567.6,226.5 L567.8,226.5 L568.0,226.4 L568.3,226.3
		L568.5,226.2 L568.8,226.1 L569.0,226.0 L569.3,225.9 L569.5,225.8 L569.8,225.7 L570.0,225.7 L570.3,225.6
		L570.5,225.5 L570.7,225.4 L571.0,225.3 L571.2,225.2 L571.5,225.1 L571.7,225.0 L572.0,224.9 L572.2,224.9
		L572.5,224.8 L572.7,224.7 L573.0,224.6 L573.2,224.5 L573.4,224.4 L573.7,224.3 L573.9,224.2 L574.2,224.1
		L574.4,224.0 L574.7,223.9 L574.9,223.9 L575.2,223.8 L575.4,223.7 L575.7,223.6 L575.9,223.5 L576.1,223.4
		L576.4,223.3 L576.6,223.2 L576.9,223.1 L577.1,223.0 L577.4,222.9 L577.6,222.8 L577.9,222.7 L578.1,222.6
		L578.3,222.6 L578.6,222.5 L578.8,222.4 L579.1,222.3 L579.3,222.2 L579.6,222.1 L579.8,222.0 L580.1,221.9
		L580.3,221.8 L580.6,221.7 L580.8,221.6 L581.0,221.5 L581.3,221.4 L581.5,221.3 L581.8,221.2 L582.0,221.1
		L582.3,221.0 L582.5,220.9 L582.8,220.8 L583.0,220.7 L583.3,220.6 L583.5,220.5 L583.7,220.4 L584.0,220.3
		L584.2,220.3 L584.5,220.2 L584.7,220.1 L585.0,220.0 L585.2,219.9 L585.5,219.8 L585.7,219.7 L586.0,219.6
		L586.2,219.5 L586.4,219.4 L586.7,219.3 L586.9,219.2 L587.2,219.1 L587.4,219.0 L587.7,218.9 L587.9,218.8
		L588.2,218.7 L588.4,218.6 L588.6,218.5 L588.9,218.4 L589.1,218.3 L589.4,218.2 L589.6,218.1 L589.9,218.1
		L590.1,218.0 L590.4,217.9 L590.6,217.8 L590.9,217.7 L591.1,217.6 L591.3,217.5 L591.6,217.4 L591.8,217.3
		L592.1,217.2 L592.3,217.1 L592.6,217.1 L592.8,217.0 L593.1,216.9 L593.3,216.8 L593.6,216.7 L593.8,216.6
		L594.0,216.5 L594.3,216.4 L594.5,216.3 L594.8,216.3 L595.0,216.2 L595.3,216.1 L595.5,216.0 L595.8,215.9
		L596.0,215.8 L596.3,215.7 L596.5,215.6 L596.7,215.6 L597.0,215.5 L597.2,215.4 L597.5,215.3 L597.7,215.2
		L598.0,215.1 L598.2,215.0 L598.5,215.0 L598.7,214.9 L598.9,214.8 L599.2,214.7 L599.4,214.6 L599.7,214.5
		L599.9,214.4 L600.2,214.3 L600.4,214.3 L600.7,214.2 L600.9,214.1 L601.2,214.0 L601.4,213.9 L601.6,213.8
		L601.9,213.7 L602.1,213.6 L602.4,213.6 L602.6,213.5 L602.9,213.4 L603.1,213.3 L603.4,213.2 L603.6,213.1
		L603.9,213.0 L604.1,212.9 L604.3,212.8 L604.6,212.7 L604.8,212.7 L605.1,212.6 L605.3,212.5 L605.6,212.4
		L605.8,212.3 L606.1,212.2 L606.3,212.1 L606.5,212.0 L606.8,211.9 L607.0,211.8 L607.3,211.7 L607.5,211.7
		L607.8,211.6 L608.0,211.5 L608.3,211.4 L608.5,211.3 L608.8,211.2 L609.0,211.1 L609.2,211.0 L609.5,210.9
		L609.7,210.8 L610.0,210.7 L610.2,210.6 L610.5,210.6 L610.7,210.5 L611.0,210.4 L611.2,210.3 L611.5,210.2
		L611.7,210.1 L611.9,210.0 L612.2,209.9 L612.4,209.8 L612.7,209.7 L612.9,209.6 L613.2,209.6 L613.4,209.5
		L613.7,209.4 L613.9,209.3 L614.2,209.2 L614.4,209.1 L614.6,209.0 L614.9,208.9 L615.1,208.9 L615.4,208.8
		L615.6,208.7 L615.9,208.6 L616.1,208.5 L616.4,208.4 L616.6,208.3 L616.8,208.3 L617.1,208.2 L617.3,208.1
		L617.6,208.0 L617.8,207.9 L618.1,207.8 L618.3,207.8 L618.6,207.7 L618.8,207.6 L619.1,207.5 L619.3,207.4
		L619.5,207.3 L619.8,207.3 L620.0,207.2 L620.3,207.1 L620.5,207.0 L620.8,206.9 L621.0,206.9 L621.3,206.8
		L621.5,206.7 L621.8,206.6 L622.0,206.5 L622.2,206.4 L622.5,206.4 L622.7,206.3 L623.0,206.2 L623.2,206.1
		L623.5,206.0 L623.7,206.0 L624.0,205.9 L624.2,205.8 L624.5,205.7 L624.7,205.6 L624.9,205.6 L625.2,205.5
		L625.4,205.4 L625.7,205.3 L625.9,205.2 L626.2,205.2 L626.4,205.1 L626.7,205.0 L626.9,204.9 L627.1,204.8
		L627.4,204.8 L627.6,204.7 L627.9,204.6 L628.1,204.5 L628.4,204.5 L628.6,204.4 L628.9,204.3 L629.1,204.2
		L629.4,204.1 L629.6,204.1 L629.8,204.0 L630.1,203.9 L630.3,203.8 L630.6,203.8 L630.8,203.7 L631.1,203.6
		L631.3,203.5 L631.6,203.4 L631.8,203.4 L632.1,203.3 L632.3,203.2 L632.5,203.1 L632.8,203.1 L633.0,203.0
		L633.3,202.9 L633.5,202.8 L633.8,202.8 L634.0,202.7 L634.3,202.6 L634.5,202.5 L634.8,202.4 L635.0,202.4
		L635.2,202.3 L635.5,202.2 L635.7,202.1 L636.0,202.1 L636.2,202.0 L636.5,201.9 L636.7,201.8 L637.0,201.8
		L637.2,201.7 L637.4,201.6 L637.7,201.5 L637.9,201.4 L638.2,201.4 L638.4,201.3 L638.7,201.2 L638.9,201.1
		L639.2,201.0 L639.4,201.0 L639.7,200.9 L639.9,200.8 L640.1,200.7 L640.4,200.6 L640.6,200.6 L640.9,200.5
		L641.1,200.4 L641.4,200.3 L641.6,200.2 L641.9,200.2 L642.1,200.1 L642.4,200.0 L642.6,199.9 L642.8,199.8
		L643.1,199.7 L643.3,199.7 L643.6,199.6 L643.8,199.5 L644.1,199.4 L644.3,199.3 L644.6,199.3 L644.8,199.2
		L645.1,199.1 L645.3,199.0 L645.5,198.9 L645.8,198.8 L646.0,198.8 L646.3,198.7 L646.5,198.6 L646.8,198.5
		L647.0,198.4 L647.3,198.3 L647.5,198.3 L647.7,198.2 L648.0,198.1 L648.2,198.0 L648.5,197.9 L648.7,197.8
		L649.0,197.8 L649.2,197.7 L649.5,197.6 L649.7,197.5 L650.0,197.4 L650.2,197.3 L650.4,197.3 L650.7,197.2
		L650.9,197.1 L651.2,197.0 L651.4,196.9 L651.7,196.8 L651.9,196.7 L652.2,196.7 L652.4,196.6 L652.7,196.5
		L652.9,196.4 L653.1,196.3 L653.4,196.2 L653.6,196.1 L653.9,196.1 L654.1,196.0 L654.4,195.9 L654.6,195.8
		L654.9,195.7 L655.1,195.6 L655.4,195.5 L655.6,195.4 L655.8,195.4 L656.1,195.3 L656.3,195.2 L656.6,195.1
		L656.8,195.0 L657.1,194.9 L657.3,194.8 L657.6,194.8 L657.8,194.7 L658.0,194.6 L658.3,194.5 L658.5,194.4
		L658.8,194.3 L659.0,194.2 L659.3,194.1 L659.5,194.1 L659.8,194.0 L660.0,193.9 L660.3,193.8 L660.5,193.7
		L660.7,193.6 L661.0,193.5 L661.2,193.4 L661.5,193.3 L661.7,193.3 L662.0,193.2 L662.2,193.1 L662.5,193.0
		L662.7,192.9 L663.0,192.8 L663.2,192.7 L663.4,192.6 L663.7,192.5 L663.9,192.5 L664.2,192.4 L664.4,192.3
		L664.7,192.2 L664.9,192.1 L665.2,192.0 L665.4,191.9 L665.6,191.8 L665.9,191.7 L666.1,191.6 L666.4,191.5
		L666.6,191.5 L666.9,191.4 L667.1,191.3 L667.4,191.2 L667.6,191.1 L667.9,191.0 L668.1,190.9 L668.3,190.8
		L668.6,190.7 L668.8,190.6 L669.1,190.5 L669.3,190.4 L669.6,190.4 L669.8,190.3 L670.1,190.2 L670.3,190.1
		L670.6,190.0 L670.8,189.9 L671.0,189.8 L671.3,189.7 L671.5,189.6 L671.8,189.5 L672.0,189.4 L672.3,189.3
		L672.5,189.2 L672.8,189.2 L673.0,189.1 L673.3,189.0 L673.5,188.9 L673.7,188.8 L674.0,188.7 L674.2,188.6
		L674.5,188.5 L674.7,188.4 L675.0,188.3 L675.2,188.2 L675.5,188.2 L675.7,188.1 L675.9,188.0 L676.2,187.9
		L676.4,187.8 L676.7,187.7 L676.9,187.6 L677.2,187.5 L677.4,187.5 L677.7,187.4 L677.9,187.3 L678.2,187.2
		L678.4,187.1 L678.6,187.0 L678.9,186.9 L679.1,186.8 L679.4,186.8 L679.6,186.7 L679.9,186.6 L680.1,186.5
		L680.4,186.4 L680.6,186.3 L680.9,186.2 L681.1,186.1 L681.3,186.1 L681.6,186.0 L681.8,185.9 L682.1,185.8
		L682.3,185.7 L682.6,185.6 L682.8,185.5 L683.1,185.5 L683.3,185.4 L683.6,185.3 L683.8,185.2 L684.0,185.1
		L684.3,185.0 L684.5,185.0 L684.8,184.9 L685.0,184.8 L685.3,184.7 L685.5,184.6 L685.8,184.5 L686.0,184.4
		L686.2,184.3 L686.5,184.3 L686.7,184.2 L687.0,184.1 L687.2,184.0 L687.5,183.9 L687.7,183.8 L688.0,183.7
		L688.2,183.6 L688.5,183.5 L688.7,183.4 L688.9,183.4 L689.2,183.3 L689.4,183.2 L689.7,183.1 L689.9,183.0
		L690.2,182.9 L690.4,182.8 L690.7,182.7 L690.9,182.6 L691.2,182.5 L691.4,182.4 L691.6,182.3 L691.9,182.2
		L692.1,182.1 L692.4,182.0 L692.6,182.0 L692.9,181.9 L693.1,181.8 L693.4,181.7 L693.6,181.6 L693.9,181.5
		L694.1,181.4 L694.3,181.3 L694.6,181.2 L694.8,181.1 L695.1,181.0 L695.3,180.9 L695.6,180.8 L695.8,180.7
		L696.1,180.6 L696.3,180.5 L696.5,180.4 L696.8,180.3 L697.0,180.2 L697.3,180.1 L697.5,180.0 L697.8,180.0
		L698.0,179.9 L698.3,179.8 L698.5,179.7 L698.8,179.6 L699.0,179.5 L699.2,179.4 L699.5,179.3 L699.7,179.2
		L700.0,179.1 L700.2,179.0 L700.5,178.9 L700.7,178.9 L701.0,178.8 L701.2,178.7 L701.5,178.6 L701.7,178.5
		L701.9,178.4 L702.2,178.3 L702.4,178.2 L702.7,178.2 L702.9,178.1 L703.2,178.0 L703.4,177.9 L703.7,177.8
		L703.9,177.7 L704.2,177.6 L704.4,177.6 L704.6,177.5 L704.9,177.4 L705.1,177.3 L705.4,177.2 L705.6,177.1
		L705.9,177.1 L706.1,177.0 L706.4,176.9 L706.6,176.8 L706.8,176.7 L707.1,176.6 L707.3,176.6 L707.6,176.5
		L707.8,176.4 L708.1,176.3 L708.3,176.2 L708.6,176.1 L708.8,176.1 L709.1,176.0 L709.3,175.9 L709.5,175.8
		L709.8,175.7 L710.0,175.7 L710.3,175.6 L710.5,175.5 L710.8,175.4 L711.0,175.3 L711.3,175.2 L711.5,175.1
		L711.8,175.1 L712.0,175.0 L712.2,174.9 L712.5,174.8 L712.7,174.7 L713.0,174.6 L713.2,174.5 L713.5,174.5
		L713.7,174.4 L714.0,174.3 L714.2,174.2 L714.5,174.1 L714.7,174.0 L714.9,173.9 L715.2,173.8 L715.4,173.7
		L715.7,173.7 L715.9,173.6 L716.2,173.5 L716.4,173.4 L716.7,173.3 L716.9,173.2 L717.1,173.1 L717.4,173.0
		L717.6,172.9 L717.9,172.8 L718.1,172.8 L718.4,172.7 L718.6,172.6 L718.9,172.5 L719.1,172.4 L719.4,172.3
		L719.6,172.2 L719.8,172.1 L720.1,172.0 L720.3,171.9 L720.6,171.8 L720.8,171.8 L721.1,171.7 L721.3,171.6
		L721.6,171.5 L721.8,171.4 L722.1,171.3 L722.3,171.2 L722.5,171.1 L722.8,171.0 L723.0,171.0 L723.3,170.9
		L723.5,170.8 L723.8,170.7 L724.0,170.6 L724.3,170.5 L724.5,170.4 L724.7,170.3 L725.0,170.3 L725.2,170.2
		L725.5,170.1 L725.7,170.0 L726.0,169.9 L726.2,169.8 L726.5,169.8 L726.7,169.7 L727.0,169.6 L727.2,169.5
		L727.4,169.4 L727.7,169.4 L727.9,169.3 L728.2,169.2 L728.4,169.1 L728.7,169.0 L728.9,169.0 L729.2,168.9
		L729.4,168.8 L729.7,168.7 L729.9,168.6 L730.1,168.6 L730.4,168.5 L730.6,168.4 L730.9,168.3 L731.1,168.2
		L731.4,168.2 L731.6,168.1 L731.9,168.0 L732.1,167.9 L732.4,167.9 L732.6,167.8 L732.8,167.7 L733.1,167.6
		L733.3,167.5 L733.6,167.5 L733.8,167.4 L734.1,167.3 L734.3,167.2 L734.6,167.1 L734.8,167.1 L735.0,167.0
		L735.3,166.9 L735.5,166.8 L735.8,166.7 L736.0,166.7 L736.3,166.6 L736.5,166.5 L736.8,166.4 L737.0,166.3
		L737.3,166.2 L737.5,166.1 L737.7,166.1 L738.0,166.0 L738.2,165.9 L738.5,165.8 L738.7,165.7 L739.0,165.6
		L739.2,165.5 L739.5,165.4 L739.7,165.3 L740.0,165.3 L740.2,165.2 L740.4,165.1 L740.7,165.0 L740.9,164.9
		L741.2,164.8 L741.4,164.7 L741.7,164.6 L741.9,164.5 L742.2,164.4 L742.4,164.3 L742.7,164.2 L742.9,164.1
		L743.1,164.1 L743.4,164.0 L743.6,163.9 L743.9,163.8 L744.1,163.7 L744.4,163.6 L744.6,163.5 L744.9,163.4
		L745.1,163.3 L745.3,163.2 L745.6,163.1 L745.8,163.0 L746.1,162.9 L746.3,162.8 L746.6,162.7 L746.8,162.6
		L747.1,162.5 L747.3,162.4 L747.6,162.3 L747.8,162.3 L748.0,162.2 L748.3,162.1 L748.5,162.0 L748.8,161.9
		L749.0,161.8 L749.3,161.7 L749.5,161.6 L749.8,161.5 L750.0,161.4 L750.3,161.3 L750.5,161.2 L750.7,161.1
		L751.0,161.0 L751.2,160.9 L751.5,160.8 L751.7,160.7 L752.0,160.6 L752.2,160.5 L752.5,160.4 L752.7,160.3
		L753.0,160.2 L753.2,160.1 L753.4,160.0 L753.7,159.9 L753.9,159.8 L754.2,159.7 L754.4,159.6 L754.7,159.5
		L754.9,159.4 L755.2,159.3 L755.4,159.2 L755.6,159.1 L755.9,159.0 L756.1,158.9 L756.4,158.8 L756.6,158.7
		L756.9,158.6 L757.1,158.6 L757.4,158.5 L757.6,158.4 L757.9,158.3 L758.1,158.2 L758.3,158.1 L758.6,158.0
		L758.8,157.9 L759.1,157.8 L759.3,157.7 L759.6,157.6 L759.8,157.5 L760.1,157.4 L760.3,157.3 L760.6,157.2
		L760.8,157.1 L761.0,157.0 L761.3,156.9 L761.5,156.8 L761.8,156.7 L762.0,156.7 L762.3,156.6 L762.5,156.5
		L762.8,156.4 L763.0,156.3 L763.3,156.2 L763.5,156.1 L763.7,156.0 L764.0,156.0 L764.2,155.9 L764.5,155.8
		L764.7,155.7 L765.0,155.6 L765.2,155.5 L765.5,155.4 L765.7,155.3 L765.9,155.3 L766.2,155.2 L766.4,155.1
		L766.7,155.0 L766.9,154.9 L767.2,154.8 L767.4,154.8 L767.7,154.7 L767.9,154.6 L768.2,154.5 L768.4,154.4
		L768.6,154.3 L768.9,154.3 L769.1,154.2 L769.4,154.1 L769.6,154.0 L769.9,153.9 L770.1,153.8 L770.4,153.8
		L770.6,153.7 L770.9,153.6 L771.1,153.5 L771.3,153.4 L771.6,153.4 L771.8,153.3 L772.1,153.2 L772.3,153.1
		L772.6,153.0 L772.8,153.0 L773.1,152.9 L773.3,152.8 L773.6,152.7 L773.8,152.6 L774.0,152.6 L774.3,152.5
		L774.5,152.4 L774.8,152.3 L775.0,152.2 L775.3,152.2 L775.5,152.1 L775.8,152.0 L776.0,151.9 L776.2,151.9
		L776.5,151.8 L776.7,151.7 L777.0,151.6 L777.2,151.5 L777.5,151.5 L777.7,151.4 L778.0,151.3 L778.2,151.2
		L778.5,151.2 L778.7,151.1 L778.9,151.0 L779.2,150.9 L779.4,150.8 L779.7,150.8 L779.9,150.7 L780.2,150.6
		L780.4,150.5 L780.7,150.5 L780.9,150.4 L781.2,150.3 L781.4,150.2 L781.6,150.2 L781.9,150.1 L782.1,150.0
		L782.4,149.9 L782.6,149.8 L782.9,149.8 L783.1,149.7 L783.4,149.6 L783.6,149.5 L783.8,149.5 L784.1,149.4
		L784.3,149.3 L784.6,149.2 L784.8,149.2 L785.1,149.1 L785.3,149.0 L785.6,148.9 L785.8,148.8 L786.1,148.8
		L786.3,148.7 L786.5,148.6 L786.8,148.5 L787.0,148.5 L787.3,148.4 L787.5,148.3 L787.8,148.2 L788.0,148.1
		L788.3,148.1 L788.5,148.0 L788.8,147.9 L789.0,147.8 L789.2,147.7 L789.5,147.7 L789.7,147.6 L790.0,147.5
		L790.2,147.4 L790.5,147.3 L790.7,147.3 L791.0,147.2 L791.2,147.1 L791.5,147.0 L791.7,147.0 L791.9,146.9
		L792.2,146.8 L792.4,146.7 L792.7,146.6 L792.9,146.6 L793.2,146.5 L793.4,146.4 L793.7,146.3 L793.9,146.2
		L794.1,146.2 L794.4,146.1 L794.6,146.0 L794.9,145.9 L795.1,145.8 L795.4,145.8 L795.6,145.7 L795.9,145.6
		L796.1,145.5 L796.4,145.4 L796.6,145.4 L796.8,145.3 L797.1,145.2 L797.3,145.1 L797.6,145.0 L797.8,145.0
		L798.1,144.9 L798.3,144.8 L798.6,144.7 L798.8,144.6 L799.1,144.6 L799.3,144.5 L799.5,144.4 L799.8,144.3
		L800.0,144.2 L800.3,144.1 L800.5,144.1 L800.8,144.0 L801.0,143.9 L801.3,143.8 L801.5,143.7 L801.8,143.6
		L802.0,143.6 L802.2,143.5 L802.5,143.4 L802.7,143.3 L803.0,143.2 L803.2,143.2 L803.5,143.1 L803.7,143.0
		L804.0,142.9 L804.2,142.8 L804.4,142.7 L804.7,142.7 L804.9,142.6 L805.2,142.5 L805.4,142.4 L805.7,142.3
		L805.9,142.2 L806.2,142.2 L806.4,142.1 L806.7,142.0 L806.9,141.9 L807.1,141.8 L807.4,141.7 L807.6,141.7
		L807.9,141.6 L808.1,141.5 L808.4,141.4 L808.6,141.3 L808.9,141.2 L809.1,141.2 L809.4,141.1 L809.6,141.0
		L809.8,140.9 L810.1,140.8 L810.3,140.8 L810.6,140.7 L810.8,140.6 L811.1,140.5 L811.3,140.4 L811.6,140.3
		L811.8,140.3 L812.1,140.2 L812.3,140.1 L812.5,140.0 L812.8,139.9 L813.0,139.9 L813.3,139.8 L813.5,139.7
		L813.8,139.6 L814.0,139.5 L814.3,139.5 L814.5,139.4 L814.7,139.3 L815.0,139.2 L815.2,139.1 L815.5,139.1
		L815.7,139.0 L816.0,138.9 L816.2,138.8 L816.5,138.7 L816.7,138.6 L817.0,138.6 L817.2,138.5 L817.4,138.4
		L817.7,138.3 L817.9,138.2 L818.2,138.2 L818.4,138.1 L818.7,138.0 L818.9,137.9 L819.2,137.8 L819.4,137.8
		L819.7,137.7 L819.9,137.6 L820.1,137.5 L820.4,137.4 L820.6,137.4 L820.9,137.3 L821.1,137.2 L821.4,137.1
		L821.6,137.1 L821.9,137.0 L822.1,136.9 L822.4,136.8 L822.6,136.7 L822.8,136.7 L823.1,136.6 L823.3,136.5
		L823.6,136.4 L823.8,136.4 L824.1,136.3 L824.3,136.2 L824.6,136.1 L824.8,136.0 L825.0,136.0 L825.3,135.9
		L825.5,135.8 L825.8,135.7 L826.0,135.7 L826.3,135.6 L826.5,135.5 L826.8,135.4 L827.0,135.3 L827.3,135.3
		L827.5,135.2 L827.7,135.1 L828.0,135.0 L828.2,135.0 L828.5,134.9 L828.7,134.8 L829.0,134.7 L829.2,134.7
		L829.5,134.6 L829.7,134.5 L830.0,134.4 L830.2,134.4 L830.4,134.3 L830.7,134.2 L830.9,134.1 L831.2,134.0
		L831.4,134.0 L831.7,133.9 L831.9,133.8 L832.2,133.7 L832.4,133.7 L832.7,133.6 L832.9,133.5 L833.1,133.4
		L833.4,133.3 L833.6,133.3 L833.9,133.2 L834.1,133.1 L834.4,133.0 L834.6,132.9 L834.9,132.8 L835.1,132.8
		L835.3,132.7 L835.6,132.6 L835.8,132.5 L836.1,132.4 L836.3,132.3 L836.6,132.2 L836.8,132.1 L837.1,132.1
		L837.3,132.0 L837.6,131.9 L837.8,131.8 L838.0,131.7 L838.3,131.6 L838.5,131.5 L838.8,131.4 L839.0,131.3
		L839.3,131.2 L839.5,131.2 L839.8,131.1 L840.0,131.0 L840.3,130.9 L840.5,130.8 L840.7,130.7 L841.0,130.6
		L841.2,130.5 L841.5,130.4 L841.7,130.3 L842.0,130.2 L842.2,130.1 L842.5,130.0 L842.7,129.9 L843.0,129.8
		L843.2,129.8 L843.4,129.7 L843.7,129.6 L843.9,129.5 L844.2,129.4 L844.4,129.3 L844.7,129.2 L844.9,129.1
		L845.2,129.0 L845.4,128.9 L845.6,128.8 L845.9,128.7 L846.1,128.6 L846.4,128.6 L846.6,128.5 L846.9,128.4
		L847.1,128.3 L847.4,128.2 L847.6,128.1 L847.9,128.0 L848.1,128.0 L848.3,127.9 L848.6,127.8 L848.8,127.7
		L849.1,127.6 L849.3,127.5 L849.6,127.5 L849.8,127.4 L850.1,127.3 L850.3,127.2 L850.6,127.1 L850.8,127.1
		L851.0,127.0 L851.3,126.9 L851.5,126.8 L851.8,126.7 L852.0,126.7 L852.3,126.6 L852.5,126.5 L852.8,126.4
		L853.0,126.3 L853.2,126.3 L853.5,126.2 L853.7,126.1 L854.0,126.0 L854.2,126.0 L854.5,125.9 L854.7,125.8
		L855.0,125.7 L855.2,125.7 L855.5,125.6 L855.7,125.5  '/></g>
	</g>
<g fill="none" color="white" stroke="rgb(217,  64,  35)" stroke-width="2.00" stroke-linecap="butt" stroke-linejoin="miter">
</g>
<g fill="none" color="black" stroke="currentColor" stroke-width="2.00" stroke-linecap="butt" stroke-linejoin="miter">
</g>
<g fill="none" color="black" stroke="black" stroke-width="1.00" stroke-linecap="butt" stroke-linejoin="miter">
</g>
<g fill="none" color="black" stroke="currentColor" stroke-width="1.00" stroke-linecap="butt" stroke-linejoin="miter">
	<path stroke='black'  d='M108.0,72.1 L108.0,399.2 L966.3,399.2 L966.3,72.1 L108.0,72.1 Z  '/></g>
<g fill="none" color="black" stroke="currentColor" stroke-width="1.00" stroke-linecap="butt" stroke-linejoin="miter">
</g>
</g>
</svg>

